{
    "label": "Aptitudes de monstruo",
    "reference": [],
    "entries": {
        "At-Will Spells": {
            "name": "Hechizos a voluntad",
            "description": "<p>@Localize[PF2E.NPC.Abilities.Glossary.AtWillSpells]</p>"
        },
        "Engulf": {
            "name": "Envolver",
            "description": "<p>@Check[type:reflex|dc:], [[/r 0[daño]]] daño, Huir DC [0], Brecha [0]</p>\n<hr />\n<p>@Localize[PF2E.NPC.Abilities.Glossary.Engulf]</p>"
        },
        "Frightful Presence": {
            "name": "Frightful Presence",
            "description": "<p>@Template[type:emanation|distance:0]{0 feet} @UUID[Compendium.pf2e.bestiary-ability-glossary-srd.v61oEQaDdcRpaZ9X]{Aura} @Check[type:will|dc:]</p>\n<hr />\n<p>@Localize[PF2E.NPC.Abilities.Glossary.FrightfulPresence]</p>"
        },
        "Improved Knockdown": {
            "name": "Derribo mejorado",
            "description": "<p>@Localize[PF2E.NPC.Abilities.Glossary.ImprovedKnockdown]</p>"
        },
        "Swallow Whole": {
            "name": "Engullir Todo",
            "description": "<p>[Tamaño listado], [[/r 0[bludgeoning]]]{0 bludgeoning}, Brecha [0]</p>\n<hr />\n<p>@Localize[PF2E.NPC.Abilities.Glossary.SwallowWhole]</p>"
        },
        "Aquatic Ambush": {
            "name": "Emboscada acuática",
            "description": "<p>@Localize[PF2E.NPC.Abilities.Glossary.AquaticAmbush]</p>"
        },
        "Light Blindness": {
            "name": "Ceguera ante la luz",
            "description": "<p>@Localize[PF2E.NPC.Abilities.Glossary.LightBlindness]</p>"
        },
        "Power Attack": {
            "name": "Ataque poderoso",
            "description": "<p>@Localize[PF2E.NPC.Abilities.Glossary.PowerAttack]</p>"
        },
        "Swarm Mind": {
            "name": "Swarm Mind",
            "description": "<p>@Localize[PF2E.NPC.Abilities.Glossary.SwarmMind]</p>"
        },
        "Troop Defenses": {
            "name": "Troop Defenses",
            "description": "<p>@Localize[PF2E.NPC.Abilities.Glossary.TroopDefenses]</p>"
        },
        "Constrict": {
            "name": "Restringir",
            "description": "<p>[[/r 0[bludgeoning]]]{0 bludgeoning}, @Check[type:fortitude|dc:|basic:true]</p>\n<hr />\n<p>@Localize[PF2E.NPC.Abilities.Glossary.Constrict]</p>"
        },
        "Darkvision": {
            "name": "Visión en la oscuridad",
            "description": "<p>@Localize[PF2E.NPC.Abilities.Glossary.Darkvision]</p>"
        },
        "Retributive Strike": {
            "name": "Golpe retributivo",
            "description": "<p>@Localize[PF2E.NPC.Abilities.Glossary.RetributiveStrike]</p>"
        },
        "Change Shape": {
            "name": "Change Shape",
            "description": "<p>@Localize[PF2E.NPC.Abilities.Glossary.ChangeShape]</p>"
        },
        "Regeneration": {
            "name": "Regeneración",
            "description": "<p>@Localize[PF2E.NPC.Abilities.Glossary.Regeneration]</p>"
        },
        "Sneak Attack": {
            "name": "Movimiento furtivo",
            "description": "<p>@Localize[PF2E.NPC.Abilities.Glossary.SneakAttack]</p>"
        },
        "All-Around Vision": {
            "name": "All-Around Vision",
            "description": "<p>@Localize[PF2E.NPC.Abilities.Glossary.AllAroundVision]</p>"
        },
        "Negative Healing": {
            "name": "Curación negativa",
            "description": "<p>@Localize[PF2E.NPC.Abilities.Glossary.NegativeHealing]</p>"
        },
        "Improved Push": {
            "name": "Empuje mejorado",
            "description": "<p>@Localize[PF2E.NPC.Abilities.Glossary.ImprovedPush]</p>"
        },
        "+1 Status to All Saves vs. Magic": {
            "name": "+1 situación a todas las salvaciones contra magia.",
            "description": ""
        },
        "Form Up": {
            "name": "Form Up",
            "description": "<p>@Localize[PF2E.NPC.Abilities.Glossary.FormUp]</p>"
        },
        "Constant Spells": {
            "name": "Constant Spells",
            "description": "<p>@Localize[PF2E.NPC.Abilities.Glossary.ConstantSpells]</p>"
        },
        "Knockdown": {
            "name": "Derribo",
            "description": "<p>@Localize[PF2E.NPC.Abilities.Glossary.Knockdown]</p>"
        },
        "Tremorsense": {
            "name": "Tremorsense",
            "description": "<p>@Localize[PF2E.NPC.Abilities.Glossary.Tremorsense]</p>"
        },
        "Greater Constrict": {
            "name": "Mayor Restricción",
            "description": "<p>[[/r 0[bludgeoning]]]{0 bludgeoning}, @Check[type:fortitude|dc:|basic:true]</p>\n<hr />\n<p>@Localize[PF2E.NPC.Abilities.Glossary.GreaterConstrict]</p>"
        },
        "Shield Block": {
            "name": "Bloquear con escudo",
            "description": "<p>@Localize[PF2E.NPC.Abilities.Glossary.ShieldBlock]</p>"
        },
        "Low-Light Vision": {
            "name": "Visión con poca luz",
            "description": "<p>@Localize[PF2E.NPC.Abilities.Glossary.LowLightVision]</p>"
        },
        "Telepathy": {
            "name": "Telepatía",
            "description": "<p>@Localize[PF2E.NPC.Abilities.Glossary.Telepathy]</p>"
        },
        "Aura": {
            "name": "Aura",
            "description": "<p>@Localize[PF2E.NPC.Abilities.Glossary.Aura]</p>"
        },
        "Catch Rock": {
            "name": "Atrapar roca",
            "description": "<p>@Localize[PF2E.NPC.Abilities.Glossary.CatchRock]</p>"
        },
        "Lifesense": {
            "name": "Lifesense",
            "description": "<p>@Localize[PF2E.NPC.Abilities.Glossary.Lifesense]</p>"
        },
        "Nimble Dodge": {
            "name": "Esquiva ágil",
            "description": "<p><strong>Desencadenante</strong> Una criatura te designa como objetivo con un ataque y puedes ver al atacante.</p> <p\n<p><strong>Requisitos</strong> No estás impedido/a</p>\n<hr />\n<p>Esquivas hábilmente, ganando un bonificador +2 de circunstancia a la CA contra el ataque desencadenante.</p> <p><strong>Evitas a tu enemigo</strong>."
        },
        "Thoughtsense": {
            "name": "Percibir pensamientos",
            "description": "<p>@Localize[PF2E.NPC.Abilities.Glossary.Thoughtsense]</p>"
        },
        "Push": {
            "name": "Push",
            "description": "<p>@Localize[PF2E.NPC.Abilities.Glossary.Push]</p>"
        },
        "Buck": {
            "name": "Encabritarse",
            "description": "<p>@Check[type:reflex|dc:]</p>\n<p>@Localize[PF2E.NPC.Abilities.Glossary.Buck]</p>"
        },
        "Poison": {
            "name": "Poison",
            "description": "<p>@Localize[PF2E.NPC.Abilities.Glossary.Poison]</p>"
        },
        "Attack of Opportunity": {
            "name": "Ataque de oportunidad",
            "description": "<p>@Localize[PF2E.NPC.Abilities.Glossary.AttackOfOpportunity]</p>"
        },
        "Ferocity": {
            "name": "Ferocidad",
            "description": "<p>@Localize[PF2E.NPC.Abilities.Glossary.Ferocity]</p>"
        },
        "Scent": {
            "name": "Scent",
            "description": "<p>@Localize[PF2E.NPC.Abilities.Glossary.Scent]</p>"
        },
        "Grab": {
            "name": "Agarrado",
            "description": "<p>@Localize[PF2E.NPC.Abilities.Glossary.Grab]</p>"
        },
        "Throw Rock": {
            "name": "Arrojar roca",
            "description": "<p>@Localize[PF2E.NPC.Abilities.Glossary.ThrowRock]</p>"
        },
        "Improved Grab": {
            "name": "Agarrado mejorado",
            "description": "<p>@Localize[PF2E.NPC.Abilities.Glossary.ImprovedGrab]</p>"
        },
        "Wavesense": {
            "name": "Wavesense",
            "description": "<p>@Localize[PF2E.NPC.Abilities.Glossary.Wavesense]</p>"
        },
        "Coven": {
            "name": "Coven",
            "description": "<p>@Localize[PF2E.NPC.Abilities.Glossary.Coven]</p>"
        },
        "Trample": {
            "name": "Trample",
            "description": "<p>[Golpe listado], @Check[type:reflex|dc:|basic:true]</p>\n<hr />\n<p>@Localize[PF2E.NPC.Abilities.Glossary.Trample]</p>"
        },
        "Disease": {
            "name": "Enfermedad",
            "description": "<p>@Localize[PF2E.NPC.Abilities.Glossary.Disease]</p>"
        },
        "Rend": {
            "name": "Rasgadura",
            "description": "<p>@Localize[PF2E.NPC.Abilities.Glossary.Rend]</p>"
        },
        "Fast Healing": {
            "name": "Curación rápida",
            "description": "<p>@Localize[PF2E.NPC.Abilities.Glossary.FastHealing]</p>"
        },
        "Greater Darkvision": {
            "name": "Mayor visión en la oscuridad",
            "description": "<p>@Localize[PF2E.NPC.Abilities.Glossary.GreaterDarkvision]</p>"
        }
    },
    "mapping": {
        "description": "system.description.value"
    }
}