{
    "label": "Efectos de aventura",
    "reference": [],
    "entries": {
        "Mixed Drink: Dancing Lights": {
            "name": "Mixed Drink: Dancing Lights (Mixed Drink: Luces Danzantes)",
            "description": "<p>Puedes lanzar <em>@UUID[Compendium.pf2e.spells-srd.kl2q6JvBZwed4B6v]{Luces Danzantes}</em> como un truco primario una vez durante el próximo día.</p>"
        },
        "Effect: Burned Mouth and Throat (No Singing or Yelling)": {
            "name": "Effect: Burned Mouth and Throat (No Singing or Yelling) (Efecto: Boca y Garganta Quemadas (No Cantar ni Gritar))",
            "description": "<p>El bebedor es incapaz de gritar o cantar durante 8 horas.</p>"
        },
        "Mixed Drink: Prestidigitation": {
            "name": "Mixed Drink: Prestidigitation (Bebida Mezclada: Prestidigitación)",
            "description": "<p>Puedes lanzar <em>@UUID[Compendium.pf2e.spells-srd.Qw3fnUlaUbnn7ipC]{Prestidigitación}</em> como un truco primario una vez durante el día siguiente.</p>"
        },
        "Resonant Reflection: Reflection of Stone": {
            "name": "Resonant Reflection: Reflection of Stone (Reflexión Resonante: Reflejo de Piedra)",
            "description": "<p>Tu cuerpo está infundido con la resistencia y durabilidad de la piedra. Estás protegido contra los efectos del frío intenso y el calor intenso. Además, también puedes concentrar esta durabilidad para obtener un efecto adicional.</p> <p>\n<hr />\n<p><strong>Activar</strong> <span class=\"pf2-icon\">2</span> visualizar</p>\n<p><strong>Frecuencia</strong> una vez al día</p>\n<hr />\n<p><strong>Efecto</strong> Lanzas <em>@UUID[Compendium.pf2e.spells-srd.2BV2yYPfVJ5zirZt]{Piel de piedra}</em> como un conjuro divino innato, potenciado a un nivel de conjuro igual a la mitad de tu nivel redondeado hacia arriba.</p>"
        },
        "Effect: Hope or Despair (Failure or Critical Failure)": {
            "name": "Effect: Hope or Despair (Failure or Critical Failure) (Efecto: Esperanza o Desesperación (Fallo o Fallo Crítico).)",
            "description": "<p><strong>Fracaso</strong> Sentimientos de tristeza y desesperación afloran en la mente de la criatura. Durante la siguiente hora, la criatura sufre una penalización de -1 a todas las tiradas de salvación contra efectos mentales; esta penalización aumenta a una penalización de -2 contra efectos mentales de emoción. Este efecto tiene el rasgo maldición.</p> <p\n<p><strong>Fallo crítico</strong> Como el fallo, pero los efectos persisten mientras el maléfico Tulvak siga controlado/a por el santuario.</p>"
        },
        "Resonant Reflection: Reflection of Water": {
            "name": "Resonant Reflection: Reflection of Water (Reflejo Resonante: Reflejo del agua)",
            "description": "<p>Tu cuerpo se infunde con la esencia del agua y se adapta a su presencia. Obtienes una Velocidad de Nadar de 3 metros y puedes respirar bajo el agua. Además, también puedes concentrar esta afinidad para obtener un efecto adicional.</p> <p>\n<hr />\n<p><strong>Activar</strong> <span class=\"pf2-icon\">2</span> visualizar</p>\n<p><strong>Frecuencia</strong> una vez al día</p>\n<hr />\n<p><strong>Efecto</strong> Lanzas <em>@UUID[Compendium.pf2e.spells-srd.zfn5RqAdF63neqpP]{Controlar el agua}</em> como conjuro divino innato de 5º nivel. El área de agua que controlas aumenta en 3 metros de largo y ancho por cada 2 niveles que tengas más allá del 10º nivel.</p> <p>"
        },
        "Effect: Immediate and Intense Headache": {
            "name": "Effect: Immediate and Intense Headache (Efecto: Dolor de cabeza inmediato e intenso.)",
            "description": "<p>Dolor de cabeza inmediato e intenso, causa debilidad 5 al daño mental durante 8 horas</p>"
        },
        "Mixed Drink: Guidance": {
            "name": "Mixed Drink: Guidance (Mixed Drink: Orientación divina)",
            "description": "<p>Puedes lanzar <em>@UUID[Compendium.pf2e.spells-srd.izcxFQFwf3woCnFs]{Orientación}</em> como un truco primario una vez en el próximo día.</p>"
        },
        "Effect: Reflection of Life (Fast Healing)": {
            "name": "Effect: Reflection of Life (Fast Healing) (Efecto: Reflejo de Vida (Curación Rápida))",
            "description": "<p>Ganas @UUID[Compendium.pf2e.bestiary-ability-glossary-srd.fJSNOw4zHGbIm4bZ]{Curación rápida}# durante 1 minuto. Esta cantidad de curación rápida comienza en 3 y aumenta en 1 por cada 2 niveles que tengas más allá del 5º nivel.</p>"
        },
        "Resonant Reflection: Reflection of Life": {
            "name": "Resonant Reflection: Reflection of Life (Reflejo Resonante: Reflejo de Vida)",
            "description": "<p>Recuperas el doble del número normal de Puntos de Golpe al descansar (lo que significa que recuperas el doble de tu modificador de Constitución multiplicado por tu nivel). La curación que obtienes del descanso prolongado se duplica de forma similar. Además, puedes concentrar esta energía curativa para acelerar aún más los procesos naturales de curación de tu cuerpo.</p> <p\n<hr />\n<p><strong>Activar</strong> <span class=\"pf2-icon\">2</span> visualizar</p>\n<p><strong>Frecuencia</strong> una vez al día</p>\n<hr />\n<p><strong>Efecto</strong> Obtienes @UUID[Compendium.pf2e.bestiary-ability-glossary-srd.fJSNOw4zHGbIm4bZ]{Curación rápida 3}# durante 1 minuto. Esta cantidad de curación rápida aumenta en 1 por cada 2 niveles que tengas más allá del 5º nivel.</p>\n<p>@UUID[Compendium.pf2e.campaign-effects.DOxl0FDd21VMDOMP]{Effect: Reflejo de Vida (Curación Rápida)}</p>"
        },
        "Effect: Keen insight": {
            "name": "Effect: Keen insight (Efecto: Afilada perspicacia)",
            "description": "<p>Afilada perspicacia, otorga un bonificador +1 de objeto a los chequeos de Percepción a @UUID[Compendium.pf2e.actionspf2e.1xRFPTFtWtGJ9ELw]{Sense Motive} durante 8 horas</p>"
        },
        "Effect: Burned Mouth and Throat (Linguistic)": {
            "name": "Effect: Burned Mouth and Throat (Linguistic) (Efecto: Boca y garganta quemadas (Lingüístico).)",
            "description": "<p>Quema la boca y la garganta, otorgando una penalización de -1 de objeto a los chequeos y DCs basados en lingüística durante 1 hora.</p>"
        },
        "Resonant Reflection: Reflection of Storm": {
            "name": "Resonant Reflection: Reflection of Storm (Reflexión Resonante: Reflejo de Tormenta)",
            "description": "<p>Tu cuerpo está acostumbrado a la devastación infligida por las fuerzas naturales. Ganas resistencia al daño de electricidad igual a tu nivel. No tratas el viento como terreno difícil o mayor terreno difícil mientras vuelas, y no puedes ser movido por el viento a menos que lo elijas. Obtienes un bonificador de situación +1 a las salvaciones contra magia primigenia. Además, puedes absorber esta energía revigorizante en tu cuerpo para obtener el siguiente efecto.</p> <p>\n<hr />\n<p><strong>Activar</strong> <span class=\"pf2-icon\">2</span> visualizar</p>\n<p><strong>Frecuencia</strong> una vez al día</p>\n<hr />\n<p><strong>Efecto</strong> Lanzas <em>@UUID[Compendium.pf2e.spells-srd.4MOew29Z1oCX8O28]{Momento de renovación}</em> (solo para ti) como conjuro divino innato de 8º nivel y recuperas 1 Punto de Foco.</p>"
        },
        "Effect: Improved reflexes": {
            "name": "Effect: Improved reflexes (Efecto: Reflejos mejorados)",
            "description": "<p>Reflejos mejorados, dando un bonus de +1 a las salvaciones de Reflejos durante 8 horas</p>"
        },
        "Mixed Drink: Luck": {
            "name": "Mixed Drink: Luck (Mixed Drink: Suerte)",
            "description": "<p>Ganas un poco de suerte: una vez durante las próximas 8 horas cuando hagas una tirada de salvación o un chequeo de habilidad, puedes tirar dos veces y coger el resultado más alto. Este es un efecto de fortuna.</p>"
        },
        "Effect: Extreme stomach cramps": {
            "name": "Effect: Extreme stomach cramps (Efecto: Calambres estomacales extremos)",
            "description": "<p>No puedes ingerir nada por voluntad propia, ni siquiera otras bebidas, durante 8 horas</p>"
        },
        "Effect: Burned Tongue (No Singing or Yelling)": {
            "name": "Effect: Burned Tongue (No Singing or Yelling) (Efecto: Lengua quemada (No se puede cantar ni gritar).)",
            "description": "<p>El bebedor es incapaz de gritar o cantar durante 1 hora.</p>."
        },
        "Resonant Reflection: Reflection of Light": {
            "name": "Resonant Reflection: Reflection of Light (Reflejo Resonante: Reflejo de Luz)",
            "description": "<p>Tus ojos están imbuidos de una luz interior que no es visible externamente pero que te proporciona visión en la oscuridad y la capacidad de distinguir el color. También puedes enfocar esta luz interior para que se manifieste como un rayo brillante de energía que sale de tus ojos.</p> <p><strong>Luz interior</strong>.\n<hr />\n<p><strong>Activar</strong> <span class=\"pf2-icon\">2</span> visualizar</p>\n<p><strong>Frecuencia</strong> una vez al día</p>\n<hr />\n<p><strong>Efecto</strong> Lanzas <em>@UUID[Compendium.pf2e.spells-srd.DyiD239dNS7RIxZE]{Luz abrasadora}</em> como un conjuro divino innato, potenciado a un nivel de conjuro igual a la mitad de tu nivel redondeado hacia arriba.</p>"
        },
        "Geb's Blessing": {
            "name": "Geb's Blessing (Bendición de Geb)",
            "description": "<p>Cada personaje gana resistencia 20 a dos de los siguientes tipos de daño a su elección: ácido, contundente, frío, electricidad, fuego, negativo, perforante, veneno, positivo, cortante o sónico. También ganan 40 Puntos de Golpe temporales durante 24 horas. Por último, cada personaje gana las siguientes dos habilidades especiales, cada una utilizable una vez.</p> <p>\n<p>@UUID[Compendium.pf2e.adventure-specific-actions.MgSwLes5lp3TE1ZV]{Mental Ward}</p>\n<p>@UUID[Compendium.pf2e.adventure-specific-actions.TM4pOPSM9r7XEM64]{Soul Ward}</p>"
        },
        "Effect: Heightened awareness": {
            "name": "Effect: Heightened awareness (Efecto: Conciencia aumentada)",
            "description": "<p>Conciencia aumentada, otorga un bonificador +1 de objeto a los chequeos de Percepción a @UUID[Compendium.pf2e.actionspf2e.BlAOM2X92SI6HMtJ]{Buscar}# durante 8 horas</p>"
        },
        "Effect: Hope or Despair (Critical Success)": {
            "name": "Effect: Hope or Despair (Critical Success) (Efecto: Esperanza o Desesperación (Éxito Crítico))",
            "description": "<p>Shelyn ve en la criatura una oportunidad de devolver la gloria al santuario, y en lugar de llenarlos de desesperación, el embrujo los llena de esperanza. Además de estar llena del impulso de derrotar al maligno que ha infestado el santuario, la criatura tiene el impulso de restablecimiento del santuario. Los detalles exactos sobre la naturaleza del maligno que infesta el santuario no son evidentes, salvo para alertar al personaje de que ciertamente hay algo terrible entre los muros del santuario. La criatura no necesita actuar según estos impulsos, pero mientras persiga cualquiera de los dos objetivos, obtiene un bonificador de situación +1 a todos los chequeos mientras permanezca en la zona del santuario. El GM determina si un chequeo cuenta o no para este objetivo (como mínimo, cuentan todos los chequeos de combate realizados contra enemigos en el resto de la aventura).</p> <p>Los chequeos de combate realizados contra enemigos en el resto de la aventura cuentan."
        },
        "Effect: Burned Tongue (Linguistic)": {
            "name": "Effect: Burned Tongue (Linguistic) (Efecto: Lengua Quemada (Lingüístico))",
            "description": "<p>Quema la lengua, otorgando una penalización de -1 de objeto a los chequeos y DCs basados en lingüística durante 1 minuto.</p>"
        },
        "Effect: Manipulate Luck - Drusilla (Good)": {
            "name": "Effect: Manipulate Luck - Drusilla (Good) (Efecto: Manipular la suerte - Drusilla (Bien))",
            "description": "<p>La criatura afectada puede tirar dos veces en una tirada de d20 durante el día siguiente y usar el resultado más alto.</p>"
        }
    },
    "mapping": {
        "description": "system.description.value"
    }
}