{
    "label": "Dominios",
    "reference": [],
    "entries": {
        "Earth Domain": {
            "name": "Earth Domain (Dominio Tierra)",
            "description": "<p><strong>Deities</strong> @UUID[Compendium.pf2e.deities.d56paSkcwvll2OhR]{Abadar}, @UUID[Compendium.pf2e.deities.RbslST0RZPXj6Eby]{Ashukharma}, @UUID[Compendium.pf2e.deities.aChBtIDfA59QQ7SN]{Ayrzul}, @UUID[Compendium.pf2e.deities.eyGEoggFlTEUQmvJ]{Bes}, @UUID[Compendium.pf2e.deities.vEMCpm7iidycRT5D]{Brigh}, @UUID[Compendium.pf2e.deities.XHDlP7o1jNz9851v]{Diomazul}, @UUID[Compendium.pf2e.deities.39z55kowQFOUH2v0]{Droskar}, @UUID[Compendium.pf2e.deities.mm1j6UbHqFCI8fwB]{Erastil}, @UUID[Compendium.pf2e.deities.6O4UGWcYERDEugzk]{Fumeiyoshi}, @UUID[Compendium.pf2e.deities.3ffVxwgtvR1imHm8]{Gendowyn}, @UUID[Compendium.pf2e.deities.VvxEvEKhCGRwrMJp]{Imbrex}, @UUID[Compendium.pf2e.deities.Mv6uTJLh3VGEoGLH]{{Nivi Rhombodazzle}, @UUID[Compendium.pf2e.deities.Bhxji0kxIbMKqdkw]{Rovagug}, @UUID[Compendium.pf2e.deities.1NxkZf6ndijKeufX]{Sairazul}, @UUID[Compendium.pf2e.deities.vnmoAGURp8oWCY6R]{Soralyon}, @UUID[Compendium.pf2e.deities.sZrdzh0ANQnZGXJb]{Torag}, @UUID[Compendium.pf2e.deities.9eltBjLngkR9x1Xm]{Trelmarixian}, @UUID[Compendium.pf2e.deities.tb0oADxOoMhyrYRA]{Yamatsumi}, @UUID[Compendium.pf2e.deities.uYpxTi4byHc5w78R]{Yuelral}</p>\n<p><strong>Hechizo de Dominio</strong> <em>@UUID[Compendium.pf2e.spells-srd.pRKaEXnjGJXbPHPC]{Piedra Hurtada}</em>; <strong>Hechizo de Dominio Avanzado</strong> <em>@UUID[Compendium.pf2e.spells-srd.cBUuG1yJHGeKffpg]{Sismo Localizado}#</em></p>\n<p>Controlas la tierra y la piedra.</p> <p>Controlas la tierra y la piedra."
        },
        "Ambition Domain": {
            "name": "Ambition Domain (Ambition Domain)",
            "description": "<p><strong>Deidades</strong> @UUID[Compendium.pf2e.deities.9WD0hbUT0IbnuTiM]{Belcebú}, @UUID[Compendium.pf2e.deities.soiVh53y9RAeSLEk]{Casandalee}, @UUID[Compendium.pf2e.deities.aVyxfqY9GBjTqQul]{Eiseth}, @UUID[Compendium.pf2e.deities.6O4UGWcYERDEugzk]{Fumeiyoshi}, @UUID[Compendium.pf2e.deities.zlJGKpeLBwajP91o]{Gyronna}, @UUID[Compendium.pf2e.deities.CnDEoo6WruQCXo1o]{Lubaiko}, @UUID[Compendium.pf2e.deities.sNjPI1iaS8Z43YJf]{Mammon}, @UUID[Compendium.pf2e.deities.1nQVLOyWv5kC0bCU]{Ravithra}, @UUID[Compendium.pf2e.deities.zzhYFcShT9JoE2Mp]{Shax}, @UUID[Compendium.pf2e.deities.rDTXcBJ8LyqA2TkL]{Szuriel}, @UUID[Compendium.pf2e.deities.PFp4Sdp2TDDKD62l]{Thamir}, @UUID[Compendium.pf2e.deities.4bEPoujxhYdUyUOg]{Ydersius}, @UUID[Compendium.pf2e.deities.SCGdJmm7Wzle9jFP]{Zohls}, @UUID[Compendium.pf2e.deities.ZfN7jkK6boU1FuiS]{Zon-Kuthon}</p>\n<p><strong>Hechizo de Dominio</strong> <em>@UUID[Compendium.pf2e.spells-srd.Dj44lViYKvOJ8a53]{Blind Ambition}</em>; <strong>Hechizo de Dominio Avanzado</strong> <em>@UUID[Compendium.pf2e.spells-srd.NOB92Wpn7jXvtyVW]{Competitive Edge}</em></p> <p>.\n<p>Te esfuerzas por mantenerte al día y superar a la competencia</p> <p>."
        },
        "Toil Domain": {
            "name": "Toil Domain (Toil Domain)",
            "description": "<p><strong>Deities</strong> @UUID[Compendium.pf2e.deities.OlVCyRgOaPJji4qt]{Chohar}, @UUID[Compendium.pf2e.deities.39z55kowQFOUH2v0]{Droskar}, @UUID[Compendium.pf2e.deities.w66gCNiZ7dslqG8K]{Lissala}, @UUID[Compendium.pf2e.deities.sNjPI1iaS8Z43YJf]{Mammon}, @UUID[Compendium.pf2e.deities.1NxkZf6ndijKeufX]{Sairazul}, @UUID[Compendium.pf2e.deities.VG51y4FbTLdeGHZB]{El Sendero de los Cielos}</p><p>\n<p><strong>Hechizo de Dominio</strong> <em>@UUID[Compendium.pf2e.spells-srd.HOj2YsTpkoMpYJH9]{La práctica hace al maestro}</em>; <strong>Hechizo de Dominio avanzado</strong> <em>@UUID[Compendium.pf2e.spells-srd.gzvRDpM6EvcfYHeu]{Trabajador incansable}</em></p> <p>.\n<p>Trabajas constantemente y te niegas a que nada se ponga de pie en tu camino.</p> <p>Trabajas constantemente y te niegas a que nada se ponga de pie en tu camino."
        },
        "Fate Domain": {
            "name": "Fate Domain (Dominio del Destino)",
            "description": "<p><strong>Deidades</strong> @UUID[Compendium.pf2e.deities.Xb1N5YfxboJH26Jh]{Angradd}, @UUID[Compendium.pf2e.deities.oV5cnlPJQS8JfMIg]{Cosmic Caravan}, @UUID[Compendium.pf2e.deities.Dm8qlzpUj7g82QFv]{Erecura}, @UUID[Compendium.pf2e.deities.xxUGdZYUj5IW7E0L]{Followers of Fate}, @UUID[Compendium.pf2e.deities.fuPTR1laXO6EionS]{Grandmother Spider}, @UUID[Compendium.pf2e.deities.KIEgpcmHYtFu1dpg]{Imot}, @UUID[Compendium.pf2e.deities.lSciGZGcbU9PJxQy]{Irez}, @UUID[Compendium.pf2e.deities.w66gCNiZ7dslqG8K]{Lissala}, @UUID[Compendium.pf2e.deities.ub0PJ5QkrdoGzzb2]{Luhar}, @UUID[Compendium.pf2e.deities.SCMlQDcoU1QcF3AS]{Lysianassa}, @UUID[Compendium.pf2e.deities.iMRXc519Uepf8yH3]{Magdh}, @UUID[Compendium.pf2e.deities.nsiDGdgbAzkTQzOt]{Magrim}, @UUID[Compendium.pf2e.deities.Af4TSJjutVi9Vdwi]{Mahathallah}, @UUID[Compendium.pf2e.deities.JgDqFUB1NtQkGmzp]{Otolmens}, @UUID[Compendium.pf2e.deities.QZD0u1jxwz0kj8uI]{Pharasma}, @UUID[Compendium.pf2e.deities.1nQVLOyWv5kC0bCU]{Ravithra}, @UUID[Compendium.pf2e.deities.3INt1X4ijBYnZYbU]{Shyka}, @UUID[Compendium.pf2e.deities.9FWBJcADLEeP8Krf]{Valmallos}</p>\n<p><strong>Hechizo de Dominio</strong> <em>@UUID[Compendium.pf2e.spells-srd.Vvxgn7saUPW2bJhb]{Leer el Destino}</em>; <strong>Hechizo de Dominio avanzado</strong> <em>@UUID[Compendium.pf2e.spells-srd.GqvKSxzN7A7kuFk4]{Tentar al Destino}#</em></p>\n<p>Ves y comprendes los inevitables ocultos.</p>"
        },
        "Glyph Domain": {
            "name": "Glyph Domain (Glifo Dominio)",
            "description": "<p><strong>Deidades</strong> @UUID[Compendium.pf2e.deities.QRkcFciCOmFoxF1B]{Asmodeus}, @UUID[Compendium.pf2e.deities.6mgCX7lvKtaEYoa9]{{Panteón Enano}, @UUID[Compendium.pf2e.deities.8DXel4AvpyUy6oJ0]{Eritrice}, @UUID[Compendium.pf2e.deities.tcvobm8O84qv0aO5]{Gruhastha}, @UUID[Compendium.pf2e.deities.WvoMr86bSSYxXKtI]{Hastur}, @UUID[Compendium.pf2e.deities.KIEgpcmHYtFu1dpg]{Imot}, @UUID[Compendium.pf2e.deities.lSciGZGcbU9PJxQy]{Irez}, @UUID[Compendium.pf2e.deities.xu05XGotyT5st56H]{Lady Jingxi}, @UUID[Compendium.pf2e.deities.w66gCNiZ7dslqG8K]{Lissala}, @UUID[Compendium.pf2e.deities.iMRXc519Uepf8yH3]{Magdh}, @UUID[Compendium.pf2e.deities.nsiDGdgbAzkTQzOt]{Magrim}, @UUID[Compendium.pf2e.deities.KWVdoAm3b01M8Lcp]{Mephistopheles}, @UUID[Compendium.pf2e.deities.gsFaxWHbZmc1moY6]{Nalinivati}, @UUID[Compendium.pf2e.deities.9EKyWmjLUu42evxC]{Nethys}, @UUID[Compendium.pf2e.deities.WO9UsCY41oTtC2G0]{Pillars of Knowledge}, @UUID[Compendium.pf2e.deities.iJyhAFmHOLZBvWnJ]{Sivanah}, @UUID[Compendium.pf2e.deities.aievwuZalZ2abs2q]{Thoth}, @UUID[Compendium.pf2e.deities.9FWBJcADLEeP8Krf]{Valmallos}, @UUID[Compendium.pf2e.deities.ZynnoQJFz12FD0Xn]{Wards of the Pharaoh}, @UUID[Compendium.pf2e.deities.8wOAwLMgB1HFLo9n]{Winlas}, @UUID[Compendium.pf2e.deities.iEt6idGIEPXY2HzV]{Ydajisk}</p>\n<p><strong>Hechizo de Dominio</strong> <em>@UUID[Compendium.pf2e.spells-srd.ifXNOhtmU4fKL68v]{Redact}</em>; <strong>Hechizo de Dominio avanzado</strong> <em>@UUID[Compendium.pf2e.spells-srd.vhe9DduqaivMs8FV]{Transcripción fantasmal}</em></p>\n<p>Ejerces poder sobre las palabras escritas y los símbolos.</p>"
        },
        "Time Domain": {
            "name": "Time Domain (Time Domain)",
            "description": "<p><strong>Deities</strong> @UUID[Compendium.pf2e.deities.9n2CI0B3EA4y3BuU]{Alseta}, @UUID[Compendium.pf2e.deities.vEMCpm7iidycRT5D]{Brigh}, @UUID[Compendium.pf2e.deities.QZD0u1jxwz0kj8uI]{Pharasma}, @UUID[Compendium.pf2e.deities.WO9UsCY41oTtC2G0]{Pillars of Knowledge}, @UUID[Compendium.pf2e.deities.woDEgBs1MznhzpJ4]{Ra}, @UUID[Compendium.pf2e.deities.3INt1X4ijBYnZYbU]{Shyka}, @UUID[Compendium.pf2e.deities.SUaGdvQXxSAQAw03]{Yog-Sothoth}</p>\n<p><strong>Hechizo de Dominio</strong> <em>@UUID[Compendium.pf2e.spells-srd.3wmX7htzOXiHLdAn]{Delay Consequence}</em>; <strong>Hechizo de Dominio Avanzado</strong> <em>@UUID[Compendium.pf2e.spells-srd.cOwSsSXRsBaXUvlr]{Stasis}#</em></p>\n<p>Reinas sobre el flujo del tiempo.</p>"
        },
        "Plague Domain": {
            "name": "Plague Domain (Plague Domain)",
            "description": "<p><strong>Deities</strong> @UUID[Compendium.pf2e.deities.oJPwMa9xG8oMnC14]{Apollyon}, @UUID[Compendium.pf2e.deities.gXHoxuuiAD54LnWV]{Cyth-V'sug}, @UUID[Compendium.pf2e.deities.oRvuLq3o2FxXizt9]{Ghlaunder}, @UUID[Compendium.pf2e.deities.r6SFB1PzKsagDXff]{Lady Nanbyo}</p>\n<p><strong>Hechizo de Dominio</strong> <em>@UUID[Compendium.pf2e.spells-srd.NkeLctXo9FLGnDhi]{Plagas Divinas}</em>; <strong>Hechizo de Dominio Avanzado</strong> <em>@UUID[Compendium.pf2e.spells-srd.6nTBr5XNuKOuPM5m]{Miasma Nauseabundo}</em></p>\n<p>Esgrimes la enfermedad y la pestilencia como un arma</p> <p>."
        },
        "Delirium Domain": {
            "name": "Delirium Domain (Dominio del Delirio)",
            "description": "<p><strong>Deities</strong> @UUID[Compendium.pf2e.deities.65o189p2eUPbqaDK]{Narriseminek}, @UUID[Compendium.pf2e.deities.8Oy4qHylOOp79JxD]{Nhimbaloth}, @UUID[Compendium.pf2e.deities.3INt1X4ijBYnZYbU]{Shyka}, @UUID[Compendium.pf2e.deities.iJyhAFmHOLZBvWnJ]{Sivanah}, @UUID[Compendium.pf2e.deities.nuqIimigyt986WLE]{The Lantern King}, @UUID[Compendium.pf2e.deities.aTYy1WHwAZiuei4h]{Tsukiyo}, @UUID[Compendium.pf2e.deities.8ZSywyo8YQPduo92]{Zura}</p>\n<p><strong>Hechizo de Dominio</strong> <em>@UUID[Compendium.pf2e.spells-srd.XhgMx9WC6NfXd9RP]{Hiperfoco}</em>; <strong>Hechizo de Dominio avanzado</strong> <em>@UUID[Compendium.pf2e.spells-srd.HisaZTk67YAxLGBq]{Peligros Efímeros}</em></p> <p>.\n<p>Puede provocar alucinación y agitación."
        },
        "Cities Domain": {
            "name": "Cities Domain (Dominio de las ciudades)",
            "description": "<p><strong>Deities</strong> @UUID[Compendium.pf2e.deities.d56paSkcwvll2OhR]{Abadar}, @UUID[Compendium.pf2e.deities.v67fHklTZ6LoU54q]{Cayden Cailean}, @UUID[Compendium.pf2e.deities.OlVCyRgOaPJji4qt]{Chohar}, @UUID[Compendium.pf2e.deities.CzHjFLx4hpIEIoWt]{Dispater}, @UUID[Compendium.pf2e.deities.liXIbl7y8www2eAn]{Findeladlara}, @UUID[Compendium.pf2e.deities.VEyowuhC4FsBnG8c]{Folgrit}, @UUID[Compendium.pf2e.deities.iXvyp9rGnqvFfy4q]{Kazutal}, @UUID[Compendium.pf2e.deities.ub0PJ5QkrdoGzzb2]{Luhar}, @UUID[Compendium.pf2e.deities.hWTTS0e7J9hJfsp3]{Matravash}, @UUID[Compendium.pf2e.deities.v1fsLP6nTkiy5ghB]{Mazludeh}, @UUID[Compendium.pf2e.deities.0R2BjVb7d9tYCIbk]{Tlehar}, @UUID[Compendium.pf2e.deities.SCGdJmm7Wzle9jFP]{Zohls}#</p>\n<p><strong>Hechizo de Dominio</strong> <em>@UUID[Compendium.pf2e.spells-srd.yH13KXUK2x093NUv]{Cara en la multitud}</em>; <strong>Hechizo de Dominio avanzado</strong> <em>#@UUID[Compendium.pf2e.spells-srd.ivKnEtI1z4UqEKIA]{Pulso de la ciudad}#</em></p>\n<p>Tienes poderes sobre los entornos urbanos y sus habitantes</p> <p>."
        },
        "Air Domain": {
            "name": "Air Domain (Dominio del Aire)",
            "description": "<p><strong>Deidades</strong> @UUID[Compendium.pf2e.deities.oJPwMa9xG8oMnC14]{Apollyon}, @UUID[Compendium.pf2e.deities.9WD0hbUT0IbnuTiM]{Belcebú}, @UUID[Compendium.pf2e.deities.oRvuLq3o2FxXizt9]{Ghlaunder}, @UUID[Compendium.pf2e.deities.swwwP7eVmlNuWTb7]{Gozreh},@UUID[Compendium.pf2e.deities.DEKKbg6riAdL2ARf]{Hei Feng},@UUID[Compendium.pf2e.deities.rRuxBgC58PxrLzRv]{Horus},@UUID[Compendium.pf2e.deities.A37XqON6QRPzQhp7]{Hshurha},@UUID[Compendium.pf2e.deities.IZcdF1G8ZsnMotaM]{Pazuzu},@UUID[Compendium.pf2e.deities.o9tK1T28LNEVzpFV]{Ragdya},@UUID[Compendium.pf2e.deities.Ij1KRM8ufkEjGnR3]{Ranginori},@UUID[Compendium.pf2e.deities.Bhxji0kxIbMKqdkw]{Rovagug},@UUID[Compendium.pf2e.deities.97Qe42wJN5EVUS14]{Sturovenen},@UUID[Compendium.pf2e.deities.w4fDrwL8VIqJDPfR]{Uvuko},@UUID[Compendium.pf2e.deities.YXmeBdOZfWgUljW1]{Ylimancha}</p>\n<p><strong>Hechizo de Dominio</strong><em>@UUID[Compendium.pf2e.spells-srd.myC2EIrsjmB8xosi]{Ráfaga impelente}</em>;<strong>Hechizo de Dominio avanzado</strong><em>@UUID[Compendium.pf2e.spells-srd.L8pzCOi7Jzx5ALs9]{Dispersarse en el aire}</em></p>\n<p>Se pueden controlar los vientos y el clima.</p> <p>"
        },
        "Nature Domain": {
            "name": "Nature Domain (Dominio de la naturaleza)",
            "description": "<p><strong>Deities</strong> @UUID[Compendium.pf2e.deities.cHAbE86pto5bvIWo]{Angazhan}, @UUID[Compendium.pf2e.deities.jrPmEfubRDzMKbxl]{Arundhat}, @UUID[Compendium.pf2e.deities.1fmTXGRPa8fLXZKL]{Balumbdar}, @UUID[Compendium.pf2e.deities.oiEo6tDP3gICHtfZ]{Barbatos}, @UUID[Compendium.pf2e.deities.zRmAXj7FSlrMfDeA]{Bastet}, @UUID[Compendium.pf2e.deities.EE8sNM4JraOPN669]{Cernunnos}, @UUID[Compendium.pf2e.deities.yiKle2URZ43KYVKQ]{Chamidu}, @UUID[Compendium.pf2e.deities.gXHoxuuiAD54LnWV]{Cyth-V'sug}, @UUID[Compendium.pf2e.deities.M3eb94Nd6uXti2IK]{Daikitsu}, @UUID[Compendium.pf2e.deities.Zw8nhcpRxinoYRSa]{Elven Pantheon}, @UUID[Compendium.pf2e.deities.mm1j6UbHqFCI8fwB]{Erastil}, @UUID[Compendium.pf2e.deities.3ffVxwgtvR1imHm8]{Gendowyn}, @UUID[Compendium.pf2e.deities.swwwP7eVmlNuWTb7]{Gozreh}, @UUID[Compendium.pf2e.deities.McUqN13BGLTpYWCg]{Green Man}, @UUID[Compendium.pf2e.deities.tcvobm8O84qv0aO5]{Gruhastha}, @UUID[Compendium.pf2e.deities.K1tzUClsozKcdpIe]{Halcamora}, @UUID[Compendium.pf2e.deities.aLCfEgt48SRUHnMC]{Jaidi}, @UUID[Compendium.pf2e.deities.kiTcZxmKxGPCwDpg]{Kalekot}, @UUID[Compendium.pf2e.deities.wjXNXFWBLbJaeZQR]{Ketephys}, @UUID[Compendium.pf2e.deities.ItYptsfjV8XvfhOV]{Lahkgya}, @UUID[Compendium.pf2e.deities.SCMlQDcoU1QcF3AS]{Lysianassa}, @UUID[Compendium.pf2e.deities.hWTTS0e7J9hJfsp3]{Matravash}, @UUID[Compendium.pf2e.deities.v1fsLP6nTkiy5ghB]{Mazludeh}, @UUID[Compendium.pf2e.deities.E1dUhoSEf2XfklU2]{Madre Buitre}, @UUID[Compendium.pf2e.deities.8Oy4qHylOOp79JxD]{Nhimbaloth}, @UUID[Compendium.pf2e.deities.nuvfUC4TcOvFbKxx]{Osiris}, @UUID[Compendium.pf2e.deities.woDEgBs1MznhzpJ4]{Ra}, @UUID[Compendium.pf2e.deities.xTD0XFaguBX6QQ2L]{Selket}, @UUID[Compendium.pf2e.deities.fTs56epghXwclPcX]{El Ciervo Madre del Bosque de Piedras}, @UUID[Compendium.pf2e.deities.BLNXYqvzmLgjMq2p]{Sun Wukong}, @UUID[Compendium.pf2e.deities.DFxbPmQLOqcmbPTz]{Tanagaar}, @UUID[Compendium.pf2e.deities.pVQzTL5elNTxvffu]{The Green Mother}, @UUID[Compendium.pf2e.deities.ENzMYuzBZGIujSMx]{Treerazer}, @UUID[Compendium.pf2e.deities.mebdNVKeKuTmDDHj]{Xhamen-Dor}, @UUID[Compendium.pf2e.deities.YXmeBdOZfWgUljW1]{Ylimancha}, @UUID[Compendium.pf2e.deities.8roijlQ03l9rWFFe]{Zevgavizeb}</p>\n<p><strong>Hechizo de Dominio</strong> <em>@UUID[Compendium.pf2e.spells-srd.nnSipUPNd3sm5vYL]{Espinas vibrantes}</em>; <strong>Hechizo de Dominio avanzado</strong> <em>@UUID[Compendium.pf2e.spells-srd.vSSKyUdrHu86E5Gk]{Botín de la Naturaleza}</em></p> <p>Tienes poder sobre el botín de la Naturaleza.\n<p>Tienes poder sobre los animales y las plantas</p> <p>."
        },
        "Wyrmkin Domain": {
            "name": "Wyrmkin Domain (Dominio Wyrmkin)",
            "description": "<p><strong>Deities</strong> @UUID[Compendium.pf2e.deities.bLI1JMpI2GXQT5AC]{Abraxas}, @UUID[Compendium.pf2e.deities.o8ayCv3LAHWlu0vQ]{Apsu}, @UUID[Compendium.pf2e.deities.uydTiyN5AzhBnQY8]{Ardad Lili}, @UUID[Compendium.pf2e.deities.Bzfc5mIUfMxOnQWu]{Dahak}, @UUID[Compendium.pf2e.deities.WOiSJ4IWjaRsSgRO]{Gerión,} @UUID[Compendium.pf2e.deities.kiTcZxmKxGPCwDpg]{Kalekot}, @UUID[Compendium.pf2e.deities.gsFaxWHbZmc1moY6]{Nalinivati}, @UUID[Compendium.pf2e.deities.XYJupIPx0GW4s7eu]{Ragadahn}, @UUID[Compendium.pf2e.deities.TvxsVRztDlGcWpcI]{Sobek}, @UUID[Compendium.pf2e.deities.w4fDrwL8VIqJDPfR]{Uvuko}, @UUID[Compendium.pf2e.deities.8roijlQ03l9rWFFe]{Zevgavizeb}</p>\n<p><strong>Hechizo de Dominio</strong> <em>@UUID[Compendium.pf2e.spells-srd.S6Kkk15MWGqzC00a]{Draconic Barrage}</em>; <strong>Hechizo de Dominio avanzado</strong> <em>@UUID[Compendium.pf2e.spells-srd.FSu6ZKxr3xdS75wq]{Roar of the Wyrm}</em></p>\n¡<p>Atraes el poder de dragones, linnormas y otras poderosas criaturas reptilianas.</p> <p><em>Roar of Wyrm!"
        },
        "Change Domain": {
            "name": "Change Domain (Cambiar Dominio)",
            "description": "<p><strong>Deities</strong> @UUID[Compendium.pf2e.deities.9n2CI0B3EA4y3BuU]{Alseta}, @UUID[Compendium.pf2e.deities.remyY1BwhEVmBwya]{Belial}, @UUID[Compendium.pf2e.deities.gXHoxuuiAD54LnWV]{Cyth-V'sug}, @UUID[Compendium.pf2e.deities.AHX89nhuVhmg8k6w]{Dagon}, @UUID[Compendium.pf2e.deities.M3eb94Nd6uXti2IK]{Daikitsu}, @UUID[Compendium.pf2e.deities.fuPTR1laXO6EionS]{Grandmother Spider}, @UUID[Compendium.pf2e.deities.qqqrbq4uCrelQvgH]{Irori}, @UUID[Compendium.pf2e.deities.5ZIvg8CkqRMepVcX]{Korada}, @UUID[Compendium.pf2e.deities.aipkJQxP4GBsTaGq]{Lamashtu}, @UUID[Compendium.pf2e.deities.CnDEoo6WruQCXo1o]{Lubaiko}, @UUID[Compendium.pf2e.deities.QibpLccM5bLUMopj]{Lymnieris}, @UUID[Compendium.pf2e.deities.fTJLgTfEMZreJ19r]{Milani}, @UUID[Compendium.pf2e.deities.E1dUhoSEf2XfklU2]{Mother Vulture}, @UUID[Compendium.pf2e.deities.hhV2g6aU8jKLEca1]{Narakaas}, @UUID[Compendium.pf2e.deities.jL1qiVOZBKXETtVD]{Nocticula}, @UUID[Compendium.pf2e.deities.nuvfUC4TcOvFbKxx]{Osiris}, @UUID[Compendium.pf2e.deities.1xHnoMlCyCV70TnT]{Saloc}, @UUID[Compendium.pf2e.deities.nuqIimigyt986WLE]{El Rey Linterna}, @UUID[Compendium.pf2e.deities.0R2BjVb7d9tYCIbk]{Tlehar}, @UUID[Compendium.pf2e.deities.aTYy1WHwAZiuei4h]{Tsukiyo}, @UUID[Compendium.pf2e.deities.w4fDrwL8VIqJDPfR]{Uvuko}, @UUID[Compendium.pf2e.deities.mebdNVKeKuTmDDHj]{Xhamen-Dor}, @UUID[Compendium.pf2e.deities.iEt6idGIEPXY2HzV]{Ydajisk}</p>\n<p><strong>Hechizo de Dominio</strong> <em>@UUID[Compendium.pf2e.spells-srd.GUnw9YXaW3YyaCAU]{Adaptarse a sí mismo}</em>; <strong>Hechizo de Dominio avanzado</strong> <em>@UUID[Compendium.pf2e.spells-srd.GoKkejPj5yWJPIPK]{Ablación adaptativa}</em></p> <p>.\n<p>Se puede reestructurar lo físico y lo metafísico</p> <p>."
        },
        "Family Domain": {
            "name": "Family Domain (Dominio familiar)",
            "description": "<p><strong>Deities</strong> @UUID[Compendium.pf2e.deities.gutbzYTZvRTnq4on]{Adanye}, @UUID[Compendium.pf2e.deities.CDkr6eXR1lgu7g6A]{Andoletta}, @UUID[Compendium.pf2e.deities.eyGEoggFlTEUQmvJ]{Bes}, @UUID[Compendium.pf2e.deities.HD7g8T8ioy1EH3M8]{Bolka}, @UUID[Compendium.pf2e.deities.OlVCyRgOaPJji4qt]{Chohar}, @UUID[Compendium.pf2e.deities.M3eb94Nd6uXti2IK]{Daikitsu}, @UUID[Compendium.pf2e.deities.6mgCX7lvKtaEYoa9]{Dwarven Pantheon}, @UUID[Compendium.pf2e.deities.mm1j6UbHqFCI8fwB]{Erastil}, @UUID[Compendium.pf2e.deities.liXIbl7y8www2eAn]{Findeladlara}, @UUID[Compendium.pf2e.deities.VEyowuhC4FsBnG8c]{Folgrit}, @UUID[Compendium.pf2e.deities.xxUGdZYUj5IW7E0L]{Followers of Fate}, @UUID[Compendium.pf2e.deities.3ffVxwgtvR1imHm8]{Gendowyn}, @UUID[Compendium.pf2e.deities.fuPTR1laXO6EionS]{Grandmother Spider}, @UUID[Compendium.pf2e.deities.tk7gRxXsqvBwQrUF]{Grundinnar}, @UUID[Compendium.pf2e.deities.TpAMy8tb5LrRgvqN]{Hathor}, @UUID[Compendium.pf2e.deities.VvxEvEKhCGRwrMJp]{Imbrex}, @UUID[Compendium.pf2e.deities.EFyDjlH7XjGq7Erd]{Isis}, @UUID[Compendium.pf2e.deities.aLCfEgt48SRUHnMC]{Jaidi}, @UUID[Compendium.pf2e.deities.iXvyp9rGnqvFfy4q]{Kazutal}, @UUID[Compendium.pf2e.deities.aipkJQxP4GBsTaGq]{Lamashtu}, @UUID[Compendium.pf2e.deities.v1fsLP6nTkiy5ghB]{Mazludeh}, @UUID[Compendium.pf2e.deities.Mv6uTJLh3VGEoGLH]{Nivi Rhombodazzle}, @UUID[Compendium.pf2e.deities.1NxkZf6ndijKeufX]{Sairazul}, @UUID[Compendium.pf2e.deities.ra7mnjAZcEuJxI37]{Shei}, @UUID[Compendium.pf2e.deities.gxwmzxUWBOhdgFSN]{Shelyn}, @UUID[Compendium.pf2e.deities.fTs56epghXwclPcX]{El Ciervo Madre del Bosque de Piedras}, @UUID[Compendium.pf2e.deities.6nq25AjImkT5GxDT]{The Prismatic Ray}, @UUID[Compendium.pf2e.deities.sZrdzh0ANQnZGXJb]{Torag}, @UUID[Compendium.pf2e.deities.g1AVEGi8QibhS007]{Walkena}, @UUID[Compendium.pf2e.deities.ZynnoQJFz12FD0Xn]{Guardias del Faraón}</p>\n<p><strong>Hechizo de Dominio</strong> <em>@UUID[Compendium.pf2e.spells-srd.YGRpHU5yxw73mls8]{Palabras tranquilizadoras}</em>; <strong>Hechizo de Dominio avanzado</strong> <em>#@UUID[Compendium.pf2e.spells-srd.tYLBjOTvBVn9JtRb]{Unidad}</em></p> <p>.\n<p>Prestas ayuda y protección a tu familia y a tu comunidad con mayor eficacia.</p> <p>"
        },
        "Magic Domain": {
            "name": "Magic Domain (Dominio Mágico)",
            "description": "<p><strong>Deities</strong> @UUID[Compendium.pf2e.deities.bLI1JMpI2GXQT5AC]{Abraxas}, @UUID[Compendium.pf2e.deities.9n2CI0B3EA4y3BuU]{Alseta}, @UUID[Compendium.pf2e.deities.jrPmEfubRDzMKbxl]{Arundhat}, @UUID[Compendium.pf2e.deities.9WD0hbUT0IbnuTiM]{Belcebú}, @UUID[Compendium.pf2e.deities.oiEo6tDP3gICHtfZ]{Barbatos}, @UUID[Compendium.pf2e.deities.Zw8nhcpRxinoYRSa]{Elven Pantheon}, @UUID[Compendium.pf2e.deities.lSciGZGcbU9PJxQy]{Irez}, @UUID[Compendium.pf2e.deities.EFyDjlH7XjGq7Erd]{Isis}, @UUID[Compendium.pf2e.deities.5ZIvg8CkqRMepVcX]{Korada}, @UUID[Compendium.pf2e.deities.w66gCNiZ7dslqG8K]{Lissala}, @UUID[Compendium.pf2e.deities.gsFaxWHbZmc1moY6]{Nalinivati}, @UUID[Compendium.pf2e.deities.9EKyWmjLUu42evxC]{Nethys}, @UUID[Compendium.pf2e.deities.RzTd9PmgnfHNlFVf]{Ng}, @UUID[Compendium.pf2e.deities.3nxIpMGeCvcBIVov]{Nyarlathotep (The Crawling Chaos)}, @UUID[Compendium.pf2e.deities.giAsBYiL2omr0x2L]{Qi Zhong}, @UUID[Compendium.pf2e.deities.xTD0XFaguBX6QQ2L]{Selket}, @UUID[Compendium.pf2e.deities.iJyhAFmHOLZBvWnJ]{Sivanah}, @UUID[Compendium.pf2e.deities.vnmoAGURp8oWCY6R]{Soralyon}, @UUID[Compendium.pf2e.deities.22n3N47sqbqbDxbp]{Urgathoa}, @UUID[Compendium.pf2e.deities.9FWBJcADLEeP8Krf]{Valmallos}, @UUID[Compendium.pf2e.deities.ZynnoQJFz12FD0Xn]{Wards of the Pharaoh}, @UUID[Compendium.pf2e.deities.uYpxTi4byHc5w78R]{Yuelral}</p>\n<p><strong>Hechizo de Dominio</strong> <em>@UUID[Compendium.pf2e.spells-srd.u4FGIUQgruLjml7J]{Vaso de la magia}</em>; <strong>Hechizo de Dominio avanzado</strong> <em>@UUID[Compendium.pf2e.spells-srd.2SYq0ZTsOtJEigFx]{Faro místico}</em></p> <p>.\n<p>Interpretáis lo inesperado e inexplicable.</p>"
        },
        "Nightmares Domain": {
            "name": "Nightmares Domain (Dominio de las pesadillas)",
            "description": "<p><strong>Deities</strong> @UUID[Compendium.pf2e.deities.sILda7I8Ak20Ioj9]{Azathoth}, @UUID[Compendium.pf2e.deities.yiKle2URZ43KYVKQ]{Chamidu}, @UUID[Compendium.pf2e.deities.WloVxo6HXJdS4YTt]{Groetus}, @UUID[Compendium.pf2e.deities.zlJGKpeLBwajP91o]{Gyronna}, @UUID[Compendium.pf2e.deities.bF77ydtptI54STl9]{Jaidz}, @UUID[Compendium.pf2e.deities.kiTcZxmKxGPCwDpg]{Kalekot}, @UUID[Compendium.pf2e.deities.14GLsVobnZTEmJrs]{Kelizandri}, @UUID[Compendium.pf2e.deities.aipkJQxP4GBsTaGq]{Lamashtu}, @UUID[Compendium.pf2e.deities.iKgERiIc8rt3fatf]{Nyarlathotep (Cazador en la oscuridad)}, @UUID[Compendium.pf2e.deities.3nxIpMGeCvcBIVov]{Nyarlathotep (El caos reptante)}, @UUID[Compendium.pf2e.deities.BrbXGyzCeORNyJT5]{Sifkesh}, @UUID[Compendium.pf2e.deities.ENzMYuzBZGIujSMx]{Treerazer}, @UUID[Compendium.pf2e.deities.9eltBjLngkR9x1Xm]{Trelmarixian}, @UUID[Compendium.pf2e.deities.8ZSywyo8YQPduo92]{Zura}</p>\n<p><strong>Hechizo de Dominio</strong> <em>@UUID[Compendium.pf2e.spells-srd.DU5daB09xwfE1y38]{Pesadilla despierta}#</em>; <strong>Hechizo de Dominio avanzado</strong> <em>@UUID[Compendium.pf2e.spells-srd.skvgOWNTitLehL0b]{Pesadilla compartida}</em></p>\n<p>Llenas las mentes de horror y espanto.</p>"
        },
        "Truth Domain": {
            "name": "Truth Domain (Dominio de la verdad)",
            "description": "<p><strong>Deities</strong> @UUID[Compendium.pf2e.deities.H1VrZ1QX0d2aPXT8]{Dammerich}, @UUID[Compendium.pf2e.deities.Dm8qlzpUj7g82QFv]{Erecura}, @UUID[Compendium.pf2e.deities.xxUGdZYUj5IW7E0L]{Seguidores del Destino}, @UUID[Compendium.pf2e.deities.WOiSJ4IWjaRsSgRO]{Gerión}, @UUID[Compendium.pf2e.deities.tcvobm8O84qv0aO5]{Gruhastha}, @UUID[Compendium.pf2e.deities.eErEiVmBqltYXFJ6]{Iomedae}, @UUID[Compendium.pf2e.deities.qqqrbq4uCrelQvgH]{Irori}, @UUID[Compendium.pf2e.deities.zhPhYge7VJbIlJvA]{Kols}, @UUID[Compendium.pf2e.deities.r5vooG7NfvA9prJK]{Kurgess}, @UUID[Compendium.pf2e.deities.ArmPZQrl0SFAKvrY]{Ma'at}, @UUID[Compendium.pf2e.deities.iMRXc519Uepf8yH3]{Magdh}, @UUID[Compendium.pf2e.deities.Af4TSJjutVi9Vdwi]{Mahathallah}, @UUID[Compendium.pf2e.deities.W4QGkdn9V5ACRpkh]{Monad}, @UUID[Compendium.pf2e.deities.WO9UsCY41oTtC2G0]{Pillars of Knowledge}, @UUID[Compendium.pf2e.deities.1nQVLOyWv5kC0bCU]{Ravithra}, @UUID[Compendium.pf2e.deities.BNycwu3I21dTh4D9]{Sarenrae}, @UUID[Compendium.pf2e.deities.SCGdJmm7Wzle9jFP]{Zohls}</p>\n<p><strong>Hechizo de Dominio</strong> <em>@UUID[Compendium.pf2e.spells-srd.aF7RiG7c8GzSQLYt]{Palabra de la Verdad}</em>; <strong>Hechizo de Dominio Avanzado</strong> <em>@UUID[Compendium.pf2e.spells-srd.ZjbVgIIqMstmdkqP]{Glimpse the Truth}</em></p>\n<p>Tú traspasas las mentiras y descubres la verdad</p> <p>."
        },
        "Indulgence Domain": {
            "name": "Indulgence Domain (Indulgence Domain)",
            "description": "<p><strong>Deidades</strong> @UUID[Compendium.pf2e.deities.aj4ChTlDcZCmrtJD]{Baphomet}, @UUID[Compendium.pf2e.deities.v67fHklTZ6LoU54q]{Cayden Cailean}, @UUID[Compendium.pf2e.deities.RUzMtIQal0drPwQY]{Gogunta}, @UUID[Compendium.pf2e.deities.K1tzUClsozKcdpIe]{Halcamora}, @UUID[Compendium.pf2e.deities.DEKKbg6riAdL2ARf]{Hei Feng}, @UUID[Compendium.pf2e.deities.V5PbbkZUP9N7kl6h]{Kabriri}, @UUID[Compendium.pf2e.deities.ItYptsfjV8XvfhOV]{Lahkgya}, @UUID[Compendium.pf2e.deities.0nQItOlce5ua6Eaf]{Sekhmet}, @UUID[Compendium.pf2e.deities.BLNXYqvzmLgjMq2p]{Sun Wukong}, @UUID[Compendium.pf2e.deities.pVQzTL5elNTxvffu]{The Green Mother}, @UUID[Compendium.pf2e.deities.22n3N47sqbqbDxbp]{Urgathoa}, @UUID[Compendium.pf2e.deities.4bEPoujxhYdUyUOg]{Ydersius}, @UUID[Compendium.pf2e.deities.8ZSywyo8YQPduo92]{Zura}</p>\n<p><strong>Hechizo de Dominio</strong> <em>@UUID[Compendium.pf2e.spells-srd.mFHQ2u4LWiejqKQG]{Otiborrarte}</em>; <strong>Hechizo de Dominio avanzado</strong> <em>@UUID[Compendium.pf2e.spells-srd.ZeHeNQ5BNq6m5F1j]{Seguir su curso}</em></p> <p>.\n<p>Te das un gran festín y puedes sacudirte los efectos de los excesos.</p>"
        },
        "Soul Domain": {
            "name": "Soul Domain (Dominio del Alma)",
            "description": "<p><strong>Deities</strong> @UUID[Compendium.pf2e.deities.uXkMGx0OD896ZQlT]{Alglenweis}, @UUID[Compendium.pf2e.deities.5YUNikBpJZ596MRD]{Anubis}, @UUID[Compendium.pf2e.deities.DJ7LDFTtns6YFodT]{Ashava}, @UUID[Compendium.pf2e.deities.tcXrtRYCOr2EmgGB]{Charon}, @UUID[Compendium.pf2e.deities.ub0PJ5QkrdoGzzb2]{Luhar}, @UUID[Compendium.pf2e.deities.QZD0u1jxwz0kj8uI]{Pharasma}, @UUID[Compendium.pf2e.deities.1nQVLOyWv5kC0bCU]{Ravithra}, @UUID[Compendium.pf2e.deities.aTYy1WHwAZiuei4h]{Tsukiyo}, @UUID[Compendium.pf2e.deities.LLMTMgARSTlO7S9U]{Zyphus}</p>\n<p><strong>Hechizo de Dominio</strong> <em>@UUID[Compendium.pf2e.spells-srd.rVhHaWqUsVUO4GuY]{Eyectar Alma}</em>; <strong>Hechizo de Dominio Avanzado</strong> <em>@UUID[Compendium.pf2e.spells-srd.QE9f3OxvvBThymD4]{Intersticio Ectoplasmático}</em></p>\n<p>Ejerces poder sobre lo espiritual</p> <p>."
        },
        "Duty Domain": {
            "name": "Duty Domain (Dominio del deber)",
            "description": "<p><strong>Deities</strong> @UUID[Compendium.pf2e.deities.d56paSkcwvll2OhR]{Abadar}, @UUID[Compendium.pf2e.deities.gutbzYTZvRTnq4on]{Adanye}, @UUID[Compendium.pf2e.deities.QRkcFciCOmFoxF1B]{Asmodeus}, @UUID[Compendium.pf2e.deities.OlVCyRgOaPJji4qt]{Chohar}, @UUID[Compendium.pf2e.deities.H1VrZ1QX0d2aPXT8]{Dammerich}, @UUID[Compendium.pf2e.deities.CzHjFLx4hpIEIoWt]{Dispater}, @UUID[Compendium.pf2e.deities.39z55kowQFOUH2v0]{Droskar}, @UUID[Compendium.pf2e.deities.6mgCX7lvKtaEYoa9]{Dwarven Pantheon}, @UUID[Compendium.pf2e.deities.mm1j6UbHqFCI8fwB]{Erastil}, @UUID[Compendium.pf2e.deities.eErEiVmBqltYXFJ6]{Iomedae}, @UUID[Compendium.pf2e.deities.zhPhYge7VJbIlJvA]{Kols}, @UUID[Compendium.pf2e.deities.nsiDGdgbAzkTQzOt]{Magrim}, @UUID[Compendium.pf2e.deities.g1VxllMjs2YRIJAm]{Moloch}, @UUID[Compendium.pf2e.deities.GEBaoeiv5CB9h2Bn]{Ragathiel}, @UUID[Compendium.pf2e.deities.s9opv94lGDRKnw6W]{Shizuru}, @UUID[Compendium.pf2e.deities.DFxbPmQLOqcmbPTz]{Tanagaar}, @UUID[Compendium.pf2e.deities.JndhOIHnQoMwnsw3]{The Godclaw}, @UUID[Compendium.pf2e.deities.sZrdzh0ANQnZGXJb]{Torag}, @UUID[Compendium.pf2e.deities.N8a76dkGfUvxvSW0]{Trudd}, @UUID[Compendium.pf2e.deities.y93whGnGZjFyw5A0]{Vildeis}, @UUID[Compendium.pf2e.deities.83jKKHQPoqVylmrF]{Yaezhing}</p>\n<p><strong>Hechizo de Dominio</strong> <em>@UUID[Compendium.pf2e.spells-srd.cokeXkDHUAo4zHsw]{Indignia del Guardián del Juramento}</em>; <strong>Hechizo de Dominio Avanzado</strong> <em>@UUID[Compendium.pf2e.spells-srd.caehfpQz7yp9yNzz]{Desafío al Juramento}</em></p> <p><strong>Hechizo de Dominio Avanzado</strong>.\n<p>Defiendes los juramentos y cumples tus misiones divinas con gran dedicación.</p> <p>Defiende los juramentos y cumples tus misiones divinas con gran dedicación.</p> <p>Defiende los juramentos y cumples tus misiones divinas con gran dedicación.</p> <p>Defiende los juramentos y cumples tus misiones divinas con gran dedicación."
        },
        "Protection Domain": {
            "name": "Protection Domain (Dominio de protección)",
            "description": "<p><strong>Deities</strong> @UUID[Compendium.pf2e.deities.gutbzYTZvRTnq4on]{Adanye}, @UUID[Compendium.pf2e.deities.9n2CI0B3EA4y3BuU]{Alseta}, @UUID[Compendium.pf2e.deities.CDkr6eXR1lgu7g6A]{Andoletta}, @UUID[Compendium.pf2e.deities.Xb1N5YfxboJH26Jh]{Angradd}, @UUID[Compendium.pf2e.deities.5YUNikBpJZ596MRD]{Anubis}, @UUID[Compendium.pf2e.deities.o8ayCv3LAHWlu0vQ]{Apsu}, @UUID[Compendium.pf2e.deities.HtRxo4J3elFteIqu]{Arazni}, @UUID[Compendium.pf2e.deities.jrPmEfubRDzMKbxl]{Arundhat}, @UUID[Compendium.pf2e.deities.RbslST0RZPXj6Eby]{Ashukharma}, @UUID[Compendium.pf2e.deities.R0DvoLO8WbYIYhb3]{Atreia}, @UUID[Compendium.pf2e.deities.1fmTXGRPa8fLXZKL]{Balumbdar}, @UUID[Compendium.pf2e.deities.zRmAXj7FSlrMfDeA]{Bastet}, @UUID[Compendium.pf2e.deities.eyGEoggFlTEUQmvJ]{Bes}, @UUID[Compendium.pf2e.deities.6mgCX7lvKtaEYoa9]{Dwarven Pantheon}, @UUID[Compendium.pf2e.deities.VEyowuhC4FsBnG8c]{Folgrit}, @UUID[Compendium.pf2e.deities.McUqN13BGLTpYWCg]{Green Man}, @UUID[Compendium.pf2e.deities.tk7gRxXsqvBwQrUF]{Grundinnar}, @UUID[Compendium.pf2e.deities.rRuxBgC58PxrLzRv]{Horus}, @UUID[Compendium.pf2e.deities.bF77ydtptI54STl9]{Jaidz}, @UUID[Compendium.pf2e.deities.iXvyp9rGnqvFfy4q]{Kazutal}, @UUID[Compendium.pf2e.deities.5ZIvg8CkqRMepVcX]{Korada}, @UUID[Compendium.pf2e.deities.QibpLccM5bLUMopj]{Lymnieris}, @UUID[Compendium.pf2e.deities.ArmPZQrl0SFAKvrY]{Ma'at}, @UUID[Compendium.pf2e.deities.9EKyWmjLUu42evxC]{Nethys}, @UUID[Compendium.pf2e.deities.giAsBYiL2omr0x2L]{Qi Zhong}, @UUID[Compendium.pf2e.deities.xTD0XFaguBX6QQ2L]{Selket}, @UUID[Compendium.pf2e.deities.gxwmzxUWBOhdgFSN]{Shelyn}, @UUID[Compendium.pf2e.deities.TvxsVRztDlGcWpcI]{Sobek}, @UUID[Compendium.pf2e.deities.vnmoAGURp8oWCY6R]{Soralyon}, @UUID[Compendium.pf2e.deities.JndhOIHnQoMwnsw3]{The Godclaw}, @UUID[Compendium.pf2e.deities.6nq25AjImkT5GxDT]{El Rayo Prismático}, @UUID[Compendium.pf2e.deities.sZrdzh0ANQnZGXJb]{Torag}, @UUID[Compendium.pf2e.deities.N8a76dkGfUvxvSW0]{Trudd}, @UUID[Compendium.pf2e.deities.GUmYLD7PGmE2TOx6]{Wadjet}, @UUID[Compendium.pf2e.deities.ZynnoQJFz12FD0Xn]{Wards of the Pharaoh}, @UUID[Compendium.pf2e.deities.8wOAwLMgB1HFLo9n]{Winlas}</p>\n<p><strong>Hechizo de Dominio</strong> <em>@UUID[Compendium.pf2e.spells-srd.rQYob0QMJ0I1U2sU]{Sacrificio del Protector}</em>; <strong>Hechizo de Dominio Avanzado</strong> <em>@UUID[Compendium.pf2e.spells-srd.DH9Y3RQGWO0GzXGU]{Esfera del Protector}</em></p> <p>Dominio Avanzado</strong>.\n<p>Te proteges a ti mismo y a los demás</p> <p>."
        },
        "Abomination Domain": {
            "name": "Abomination Domain (Dominio Abominación)",
            "description": "<p><strong>Deidades</strong> @UUID[Compendium.pf2e.deities.8Oy4qHylOOp79JxD]{Nhimbaloth}</p>\n<p><strong>Hechizo de Dominio</strong> <em>@UUID[Compendium.pf2e.spells-srd.6GjJtLJnwC18Y0aZ]{Levantar el Caliz de la Naturaleza}</em><u></u>; <strong>Hechizo de Dominio Avanzado</strong> <em>@UUID[Compendium.pf2e.spells-srd.0qA4MfMkFklOz2Lk]{Festín de Miedo}</em></p>\n<p>Buscas infundir aborrecimiento y horror a los que te rodean.</p>"
        },
        "Undeath Domain": {
            "name": "Undeath Domain (Undeath Domain)",
            "description": "<p><strong>Deities</strong> @UUID[Compendium.pf2e.deities.6O4UGWcYERDEugzk]{Fumeiyoshi}, @UUID[Compendium.pf2e.deities.V5PbbkZUP9N7kl6h]{Kabriri}, @UUID[Compendium.pf2e.deities.Af4TSJjutVi9Vdwi]{Mahathallah}, @UUID[Compendium.pf2e.deities.8Oy4qHylOOp79JxD]{Nhimbaloth}, @UUID[Compendium.pf2e.deities.22n3N47sqbqbDxbp]{Urgathoa}, @UUID[Compendium.pf2e.deities.8ZSywyo8YQPduo92]{Zura}, @UUID[Compendium.pf2e.deities.LLMTMgARSTlO7S9U]{Zyphus}</p>\n<p><strong>Hechizo de Dominio</strong> <em>@UUID[Compendium.pf2e.spells-srd.GYI4xloAgkm6tTrT]{Toque de muerte}</em>; <strong>Hechizo de Dominio avanzado</strong> <em>@UUID[Compendium.pf2e.spells-srd.qzsQmpiQodHBBWYI]{Malignant Sustenance}</em></p>\n<p>Tu magia conlleva estrechos lazos con los muertos vivientes</p> <p>."
        },
        "Tyranny Domain": {
            "name": "Tyranny Domain (Tyranny Domain)",
            "description": "<p><strong>Deities</strong> @UUID[Compendium.pf2e.deities.cHAbE86pto5bvIWo]{Angazhan}, @UUID[Compendium.pf2e.deities.QRkcFciCOmFoxF1B]{Asmodeus}, @UUID[Compendium.pf2e.deities.oiEo6tDP3gICHtfZ]{Barbatos}, @UUID[Compendium.pf2e.deities.CzHjFLx4hpIEIoWt]{Dispater}, @UUID[Compendium.pf2e.deities.39z55kowQFOUH2v0]{Droskar}, @UUID[Compendium.pf2e.deities.RUzMtIQal0drPwQY]{Gogunta}, ##50c163244ac721ebbd8f918285b994##{Mephistopheles}##, @UUID[Compendium.pf2e.deities.IZcdF1G8ZsnMotaM]{Pazuzu}, @UUID[Compendium.pf2e.deities.JndhOIHnQoMwnsw3]{The Godclaw}, @UUID[Compendium.pf2e.deities.ENzMYuzBZGIujSMx]{Treerazer}, @UUID[Compendium.pf2e.deities.g1AVEGi8QibhS007]{Walkena}</p>\n<p><strong>Hechizo de Dominio</strong> <em>@UUID[Compendium.pf2e.spells-srd.MmQiEc7aM9PDLO2J]{Toque de obediencia}</em>; <strong>Hechizo de Dominio avanzado</strong> <em>@UUID[Compendium.pf2e.spells-srd.4DaHIgtMBTyxebY3]{Lazo de mando}</em></p>\n<p>Ejerces el poder para gobernar y esclavizar a los demás</p> <p>."
        },
        "Dust Domain": {
            "name": "Dust Domain (Dust Domain)",
            "description": "<p><strong>Deities</strong> @UUID[Compendium.pf2e.deities.A37XqON6QRPzQhp7]{Hshurha}, @UUID[Compendium.pf2e.deities.SAuFz101iP6VVwvw]{Nurgal}, @UUID[Compendium.pf2e.deities.9eltBjLngkR9x1Xm]{Trelmarixian}, @UUID[Compendium.pf2e.deities.7L9KIqixgseSCY3X]{Ymeri}</p>\n<p><strong>Hechizo de Dominio</strong> <em>@UUID[Compendium.pf2e.spells-srd.7CUgqHunmHfW2lC5]{Parch}</em>; <strong>Hechizo de Dominio avanzado</strong> <em>@UUID[Compendium.pf2e.spells-srd.K1wmI4qPmRhFczmy]{Tormenta de polvo}</em></p>\n<p>Tienes el poder de secar y desmenuzar lo que se te opone.</p> <p> <strong>Tormenta de Polvo</strong>."
        },
        "Pain Domain": {
            "name": "Pain Domain (Dominio del dolor)",
            "description": "<p><strong>Deities</strong> @UUID[Compendium.pf2e.deities.HtRxo4J3elFteIqu]{Arazni}, @UUID[Compendium.pf2e.deities.AlL9GtlTldbqNoVm]{Calistria}, @UUID[Compendium.pf2e.deities.AMFkYKUNQ3kCD0ob]{Doloras}, @UUID[Compendium.pf2e.deities.zlJGKpeLBwajP91o]{Gyronna}, @UUID[Compendium.pf2e.deities.hhV2g6aU8jKLEca1]{Narakaas}, @UUID[Compendium.pf2e.deities.zzhYFcShT9JoE2Mp]{Shax}, @UUID[Compendium.pf2e.deities.BrbXGyzCeORNyJT5]{Sifkesh}, @UUID[Compendium.pf2e.deities.fTs56epghXwclPcX]{El Ciervo Madre del Bosque de Piedras}, @UUID[Compendium.pf2e.deities.y93whGnGZjFyw5A0]{Vildeis}, @UUID[Compendium.pf2e.deities.83jKKHQPoqVylmrF]{Yaezhing}, @UUID[Compendium.pf2e.deities.ZfN7jkK6boU1FuiS]{Zon-Kuthon}</p>\n<p><strong>Hechizo de Dominio</strong> <em>@UUID[Compendium.pf2e.spells-srd.xn0V2HDrmDWNzPEt]{Saborear el aguijón}</em>; <strong>Hechizo de Dominio avanzado</strong> <em>@UUID[Compendium.pf2e.spells-srd.SSsUC7rZo0CwayPn]{Dolor retributivo}</em></p>\n<p>Castigas a los que te desagradan con el agudo aguijón del dolor</p> <p>."
        },
        "Confidence Domain": {
            "name": "Confidence Domain (Dominio de confianza)",
            "description": "<p><strong>Deities</strong> @UUID[Compendium.pf2e.deities.gutbzYTZvRTnq4on]{Adanye}, @UUID[Compendium.pf2e.deities.HtRxo4J3elFteIqu]{Arazni}, @UUID[Compendium.pf2e.deities.KDFujU3Yug6AwCOz]{Arshea}, @UUID[Compendium.pf2e.deities.QRkcFciCOmFoxF1B]{Asmodeus}, @UUID[Compendium.pf2e.deities.HD7g8T8ioy1EH3M8]{Bolka}, @UUID[Compendium.pf2e.deities.4GO4iT585ynLJnc8]{Chaldira}, @UUID[Compendium.pf2e.deities.vSUz97Y29l1O50bC]{Count Ranalc}, @UUID[Compendium.pf2e.deities.CzHjFLx4hpIEIoWt]{Dispater}, @UUID[Compendium.pf2e.deities.8DXel4AvpyUy6oJ0]{Eritrice}, @UUID[Compendium.pf2e.deities.Zi1UARhode3FSFLr]{General Susumu}, @UUID[Compendium.pf2e.deities.88vRw2ZVPax4hhga]{Gorum}, @UUID[Compendium.pf2e.deities.tk7gRxXsqvBwQrUF]{Grundinnar}, @UUID[Compendium.pf2e.deities.eErEiVmBqltYXFJ6]{Iomedae}, @UUID[Compendium.pf2e.deities.bF77ydtptI54STl9]{Jaidz}, @UUID[Compendium.pf2e.deities.Mv6uTJLh3VGEoGLH]{Nivi Rhombodazzle}, @UUID[Compendium.pf2e.deities.o9tK1T28LNEVzpFV]{Ragdya}, @UUID[Compendium.pf2e.deities.u3YfcJh1C4w6n75j]{Raumya}, @UUID[Compendium.pf2e.deities.97Qe42wJN5EVUS14]{Sturovenen}, @UUID[Compendium.pf2e.deities.PFp4Sdp2TDDKD62l]{Thamir}, @UUID[Compendium.pf2e.deities.N8a76dkGfUvxvSW0]{Trudd}</p>\n<p><strong>Hechizo de Dominio</strong> <em>@UUID[Compendium.pf2e.spells-srd.Q25JQAgnJSGgFDKZ]{Velo de confianza}</em>; <strong>Hechizo de Dominio avanzado</strong> <em>@UUID[Compendium.pf2e.spells-srd.J8pL8yTshga8QOk8]{{Orgullo delirante}</em></p>\n<p>Superas el miedo y proyectas orgullo</p> <p>."
        },
        "Healing Domain": {
            "name": "Healing Domain (Curar Dominio)",
            "description": "<p><strong>Deities</strong> @UUID[Compendium.pf2e.deities.jrPmEfubRDzMKbxl]{Arundhat}, @UUID[Compendium.pf2e.deities.R0DvoLO8WbYIYhb3]{Atreia}, @UUID[Compendium.pf2e.deities.HD7g8T8ioy1EH3M8]{Bolka}, @UUID[Compendium.pf2e.deities.yiKle2URZ43KYVKQ]{Chamidu}, @UUID[Compendium.pf2e.deities.McUqN13BGLTpYWCg]{Green Man}, @UUID[Compendium.pf2e.deities.EFyDjlH7XjGq7Erd]{Isis}, @UUID[Compendium.pf2e.deities.5ZIvg8CkqRMepVcX]{Korada}, @UUID[Compendium.pf2e.deities.nuvfUC4TcOvFbKxx]{Osiris}, @UUID[Compendium.pf2e.deities.QZD0u1jxwz0kj8uI]{Pharasma}, @UUID[Compendium.pf2e.deities.giAsBYiL2omr0x2L]{Qi Zhong}, @UUID[Compendium.pf2e.deities.BNycwu3I21dTh4D9]{Sarenrae}, @UUID[Compendium.pf2e.deities.0nQItOlce5ua6Eaf]{Sekhmet}, @UUID[Compendium.pf2e.deities.xTD0XFaguBX6QQ2L]{Selket}, @UUID[Compendium.pf2e.deities.ra7mnjAZcEuJxI37]{Shei}, @UUID[Compendium.pf2e.deities.fTs56epghXwclPcX]{El Ciervo Madre del Bosque de Piedras}, @UUID[Compendium.pf2e.deities.6nq25AjImkT5GxDT]{El Rayo Prismático}, @UUID[Compendium.pf2e.deities.0R2BjVb7d9tYCIbk]{Tlehar}, @UUID[Compendium.pf2e.deities.w4fDrwL8VIqJDPfR]{Uvuko}, @UUID[Compendium.pf2e.deities.ZynnoQJFz12FD0Xn]{Guardias del Faraón}</p>\n<p><strong>Hechizo de Dominio</strong> <em>@UUID[Compendium.pf2e.spells-srd.rhJyqB9g3ziImQgM]{Bendición del sanador}</em>; <strong>Hechizo de Dominio avanzado</strong> <em>@UUID[Compendium.pf2e.spells-srd.4nHYSMHito1GUXlm]{Rebukea la muerte}</em></p> <p>.\n<p>Tu magia de curar es particularmente potente.</p>"
        },
        "Decay Domain": {
            "name": "Decay Domain (Decay Domain)",
            "description": "<p><strong>Deities</strong> @UUID[Compendium.pf2e.deities.oJPwMa9xG8oMnC14]{Apollyon}, @UUID[Compendium.pf2e.deities.sILda7I8Ak20Ioj9]{Azathoth}, @UUID[Compendium.pf2e.deities.gXHoxuuiAD54LnWV]{Cyth-V'sug}, @UUID[Compendium.pf2e.deities.oRvuLq3o2FxXizt9]{Ghlaunder}, @UUID[Compendium.pf2e.deities.WloVxo6HXJdS4YTt]{Groetus}, @UUID[Compendium.pf2e.deities.s81N9hxffmRuy3ik]{Kerkamoth}, @UUID[Compendium.pf2e.deities.E1dUhoSEf2XfklU2]{Mother Vulture}, @UUID[Compendium.pf2e.deities.8Oy4qHylOOp79JxD]{Nhimbaloth}, @UUID[Compendium.pf2e.deities.3INt1X4ijBYnZYbU]{Shyka}, @UUID[Compendium.pf2e.deities.pVQzTL5elNTxvffu]{The Green Mother}, @UUID[Compendium.pf2e.deities.9eltBjLngkR9x1Xm]{Trelmarixian}, @UUID[Compendium.pf2e.deities.22n3N47sqbqbDxbp]{Urgathoa}, @UUID[Compendium.pf2e.deities.mebdNVKeKuTmDDHj]{Xhamen-Dor}</p>\n<p><strong>Hechizo de Dominio</strong> <em>@UUID[Compendium.pf2e.spells-srd.7tp97g0UCJ9wOrd5]{Agarre Marchitamiento}</em>; <strong>Hechizo de Dominio Avanzado</strong> <em>@UUID[Compendium.pf2e.spells-srd.2RhZkHNv8ajq0yLq]{Campo de Sebo}#</em></p> <p>.\n<p>Tienes el poder de estropear y deteriorar la materia</p> <p>."
        },
        "Might Domain": {
            "name": "Might Domain (Dominio del poder)",
            "description": "<p><strong>Deidades</strong> @UUID[Compendium.pf2e.deities.51kMMWaT6CqpGlGk]{Achaekek}, @UUID[Compendium.pf2e.deities.uXkMGx0OD896ZQlT]{Alglenweis}, @UUID[Compendium.pf2e.deities.cHAbE86pto5bvIWo]{Angazhan}, @UUID[Compendium.pf2e.deities.RbslST0RZPXj6Eby]{Ashukharma}, @UUID[Compendium.pf2e.deities.aChBtIDfA59QQ7SN]{Ayrzul}, @UUID[Compendium.pf2e.deities.1fmTXGRPa8fLXZKL]{Balumbdar}, @UUID[Compendium.pf2e.deities.aj4ChTlDcZCmrtJD]{Baphomet}, @UUID[Compendium.pf2e.deities.v67fHklTZ6LoU54q]{Cayden Cailean}, @UUID[Compendium.pf2e.deities.oyp2E685VsQFKMXi]{Dranngvit}, @UUID[Compendium.pf2e.deities.aVyxfqY9GBjTqQul]{Eiseth}, @UUID[Compendium.pf2e.deities.IXLzDSMGndFb5rGY]{Falayna}, @UUID[Compendium.pf2e.deities.Zi1UARhode3FSFLr]{General Susumu}, @UUID[Compendium.pf2e.deities.WOiSJ4IWjaRsSgRO]{Gerión}, @UUID[Compendium.pf2e.deities.RUzMtIQal0drPwQY]{Gogunta}, @UUID[Compendium.pf2e.deities.88vRw2ZVPax4hhga]{Gorum}, @UUID[Compendium.pf2e.deities.McUqN13BGLTpYWCg]{Green Man}, @UUID[Compendium.pf2e.deities.VvxEvEKhCGRwrMJp]{Imbrex}, @UUID[Compendium.pf2e.deities.eErEiVmBqltYXFJ6]{Iomedae}, @UUID[Compendium.pf2e.deities.qqqrbq4uCrelQvgH]{Irori}, @UUID[Compendium.pf2e.deities.aLCfEgt48SRUHnMC]{Jaidi}, @UUID[Compendium.pf2e.deities.iXvyp9rGnqvFfy4q]{Kazutal}, @UUID[Compendium.pf2e.deities.zhPhYge7VJbIlJvA]{Kols}, @UUID[Compendium.pf2e.deities.JcIf4uwKLxEWdplI]{Kostchtchie}, @UUID[Compendium.pf2e.deities.r5vooG7NfvA9prJK]{Kurgess}, @UUID[Compendium.pf2e.deities.aipkJQxP4GBsTaGq]{Lamashtu}, @UUID[Compendium.pf2e.deities.g1VxllMjs2YRIJAm]{Moloch}, @UUID[Compendium.pf2e.deities.o9tK1T28LNEVzpFV]{Ragdya}, @UUID[Compendium.pf2e.deities.u3YfcJh1C4w6n75j]{Raumya}, @UUID[Compendium.pf2e.deities.0nQItOlce5ua6Eaf]{Sekhmet}, @UUID[Compendium.pf2e.deities.TvxsVRztDlGcWpcI]{Sobek}, @UUID[Compendium.pf2e.deities.BLNXYqvzmLgjMq2p]{Sun Wukong}, @UUID[Compendium.pf2e.deities.rDTXcBJ8LyqA2TkL]{Szuriel}, @UUID[Compendium.pf2e.deities.N8a76dkGfUvxvSW0]{Trudd}, @UUID[Compendium.pf2e.deities.22n3N47sqbqbDxbp]{Urgathoa}, @UUID[Compendium.pf2e.deities.tb0oADxOoMhyrYRA]{Yamatsumi}, @UUID[Compendium.pf2e.deities.4bEPoujxhYdUyUOg]{Ydersius}, @UUID[Compendium.pf2e.deities.8roijlQ03l9rWFFe]{Zevgavizeb}</p>\n<p><strong>Hechizo de Dominio</strong> <em>@UUID[Compendium.pf2e.spells-srd.UGJzJRJDoonfWqqI]{Embestida Atlética}</em>; <strong>Hechizo de Dominio Avanzado</strong> <em>@UUID[Compendium.pf2e.spells-srd.eG1fBodYwolaXK98]{Poder duradero}</em></p>\n<p>Tu poder físico se ve reforzado por la fuerza divina</p> <p>."
        },
        "Moon Domain": {
            "name": "Moon Domain (Dominio de la Luna)",
            "description": "<p><strong>Deidades</strong> @UUID[Compendium.pf2e.deities.DJ7LDFTtns6YFodT]{Ashava}, @UUID[Compendium.pf2e.deities.oV5cnlPJQS8JfMIg]{Cosmic Caravan}, @UUID[Compendium.pf2e.deities.JgqH3BhuEuA4Zyqs]{Desna}, @UUID[Compendium.pf2e.deities.liXIbl7y8www2eAn]{Findeladlara}, @UUID[Compendium.pf2e.deities.rRuxBgC58PxrLzRv]{Horus}, @UUID[Compendium.pf2e.deities.wjXNXFWBLbJaeZQR]{Ketephys}, @UUID[Compendium.pf2e.deities.VG51y4FbTLdeGHZB]{El Camino de los Cielos}, @UUID[Compendium.pf2e.deities.6nq25AjImkT5GxDT]{The Prismatic Ray}, @UUID[Compendium.pf2e.deities.aievwuZalZ2abs2q]{Thoth}, @UUID[Compendium.pf2e.deities.aTYy1WHwAZiuei4h]{Tsukiyo}</p>\n<p><strong>Hechizo de Dominio</strong> <em>@UUID[Compendium.pf2e.spells-srd.SuBtUJiU6DbSJYIw]{Rayo lunar}</em>; <strong>Hechizo de Dominio avanzado</strong> <em>@UUID[Compendium.pf2e.spells-srd.oXCwHBeDja4e0Mx0]{Toque de la luna}#</em></p> <p>Dominio avanzado</strong>.\n<p>Tú orden imperiosa poderes asociados con la luna.</p> <p>Tú orden imperiosa poderes asociados con la luna.</p> <p>Tú orden imperiosa poderes asociados con la luna."
        },
        "Darkness Domain": {
            "name": "Darkness Domain (Dominio de la oscuridad)",
            "description": "<p><strong>Deities</strong> @UUID[Compendium.pf2e.deities.pCtJONJlhAugUXaG]{Ahriman}, @UUID[Compendium.pf2e.deities.uydTiyN5AzhBnQY8]{Ardad Lili}, @UUID[Compendium.pf2e.deities.DJ7LDFTtns6YFodT]{Ashava}, ###bcf9d5f5e8f5b28fa101c9b869264d###{Cosmic Caravan}###, @UUID[Compendium.pf2e.deities.vSUz97Y29l1O50bC]{Count Ranalc}, @UUID[Compendium.pf2e.deities.fuPTR1laXO6EionS]{Grandmother Spider}, @UUID[Compendium.pf2e.deities.WloVxo6HXJdS4YTt]{Groetus}, @UUID[Compendium.pf2e.deities.kiTcZxmKxGPCwDpg]{Kalekot}, @UUID[Compendium.pf2e.deities.s81N9hxffmRuy3ik]{Kerkamoth}, @UUID[Compendium.pf2e.deities.wjXNXFWBLbJaeZQR]{Ketephys}, @UUID[Compendium.pf2e.deities.MbJ93Nw39h2cBYi5]{Lao Shu Po}, @UUID[Compendium.pf2e.deities.ub0PJ5QkrdoGzzb2]{Luhar}, @UUID[Compendium.pf2e.deities.jL1qiVOZBKXETtVD]{Nocticula}, @UUID[Compendium.pf2e.deities.iKgERiIc8rt3fatf]{Nyarlathotep (Acechador en la oscuridad)}, @UUID[Compendium.pf2e.deities.3nxIpMGeCvcBIVov]{Nyarlathotep (The Crawling Chaos)}, @UUID[Compendium.pf2e.deities.Vzxm5FyIA40b2OSP]{Pulura}, @UUID[Compendium.pf2e.deities.DFxbPmQLOqcmbPTz]{Tanagaar}, @UUID[Compendium.pf2e.deities.ZfN7jkK6boU1FuiS]{Zon-Kuthon}</p>\n<p><strong>Hechizo de Dominio</strong> <em>@UUID[Compendium.pf2e.spells-srd.SE0fbgBj7atuukdv]{Capa de Sombra}</em>; <strong>Hechizo de Dominio avanzado</strong> <em>@UUID[Compendium.pf2e.spells-srd.oiUhJbJ3YCKF62Fu]{Ojos oscurecidos}</em></p> <p>.\n<p>Ustedes operan en la oscuridad y se llevan la luz.</p>"
        },
        "Sorrow Domain": {
            "name": "Sorrow Domain (Dominio del Dolor)",
            "description": "<p><strong>Deities</strong> @UUID[Compendium.pf2e.deities.CDkr6eXR1lgu7g6A]{Andoletta}, @UUID[Compendium.pf2e.deities.HtRxo4J3elFteIqu]{Arazni}, @UUID[Compendium.pf2e.deities.vSUz97Y29l1O50bC]{Count Ranalc}, @UUID[Compendium.pf2e.deities.AMFkYKUNQ3kCD0ob]{Doloras}, @UUID[Compendium.pf2e.deities.lUFMwdv1UOyzFhIM]{Likha}, @UUID[Compendium.pf2e.deities.pm8H2DbtrHM01KNV]{Naderi}, @UUID[Compendium.pf2e.deities.hhV2g6aU8jKLEca1]{Narakaas}, @UUID[Compendium.pf2e.deities.Vzxm5FyIA40b2OSP]{Pulura}, @UUID[Compendium.pf2e.deities.1nQVLOyWv5kC0bCU]{Ravithra}, @UUID[Compendium.pf2e.deities.s9opv94lGDRKnw6W]{Shizuru}, @UUID[Compendium.pf2e.deities.BrbXGyzCeORNyJT5]{Sifkesh}, @UUID[Compendium.pf2e.deities.HbuynQRCjGKtbhcC]{The Lost Prince}, @UUID[Compendium.pf2e.deities.y93whGnGZjFyw5A0]{Vildeis}, @UUID[Compendium.pf2e.deities.LLMTMgARSTlO7S9U]{Zyphus}</p>\n<p><strong>Hechizo de Dominio</strong> <em>@UUID[Compendium.pf2e.spells-srd.T90ij2uu6ZaBaSXV]{Lament}</em>; <strong>Hechizo de Dominio avanzado</strong> <em>###7bf9547aa439b121393cc3437fb5fb###{Dolor desbordante}###</em></p>\n<p>Tienes una conexión dolorosa con la melancolía y la tristeza</p> <p>."
        },
        "Swarm Domain": {
            "name": "Swarm Domain (Dominio Enjambre)",
            "description": "<p><strong>Deities</strong> @UUID[Compendium.pf2e.deities.oJPwMa9xG8oMnC14]{Apollyon}, @UUID[Compendium.pf2e.deities.oRvuLq3o2FxXizt9]{Ghlaunder}, @UUID[Compendium.pf2e.deities.K1tzUClsozKcdpIe]{Halcamora}, @UUID[Compendium.pf2e.deities.ItYptsfjV8XvfhOV]{Lahkgya}, @UUID[Compendium.pf2e.deities.MbJ93Nw39h2cBYi5]{Lao Shu Po}, @UUID[Compendium.pf2e.deities.IZcdF1G8ZsnMotaM]{Pazuzu}, @UUID[Compendium.pf2e.deities.Bhxji0kxIbMKqdkw]{Rovagug}, @UUID[Compendium.pf2e.deities.22n3N47sqbqbDxbp]{Urgathoa}</p>\n<p><strong>Hechizo de Dominio</strong> <em>@UUID[Compendium.pf2e.spells-srd.5wjl0ZwEvvUh7sor]{Swarmsense}</em>; <strong>Hechizo de Dominio Avanzado</strong> <em>###d69cb605640fbe95d2d9f1239f7f7d7###{Swarm Form}####</em></p>\n<p>Ejerces control sobre masas de criaturas</p> <p>."
        },
        "Freedom Domain": {
            "name": "Freedom Domain (Dominio de la libertad)",
            "description": "<p><strong>Deities</strong> @UUID[Compendium.pf2e.deities.HtRxo4J3elFteIqu]{Arazni}, @UUID[Compendium.pf2e.deities.KDFujU3Yug6AwCOz]{Arshea}, @UUID[Compendium.pf2e.deities.c9NFjRR8gr6CWpjl]{Black Butterfly}, @UUID[Compendium.pf2e.deities.soiVh53y9RAeSLEk]{Casandalee}, @UUID[Compendium.pf2e.deities.v67fHklTZ6LoU54q]{Cayden Cailean}, @UUID[Compendium.pf2e.deities.oV5cnlPJQS8JfMIg]{Cosmic Caravan}, @UUID[Compendium.pf2e.deities.IXLzDSMGndFb5rGY]{Falayna}, @UUID[Compendium.pf2e.deities.iXvyp9rGnqvFfy4q]{Kazutal}, @UUID[Compendium.pf2e.deities.fTJLgTfEMZreJ19r]{Milani}, @UUID[Compendium.pf2e.deities.65o189p2eUPbqaDK]{Narriseminek}, @UUID[Compendium.pf2e.deities.Ij1KRM8ufkEjGnR3]{Ranginori}, @UUID[Compendium.pf2e.deities.1xHnoMlCyCV70TnT]{Saloc}, @UUID[Compendium.pf2e.deities.ra7mnjAZcEuJxI37]{Shei}, @UUID[Compendium.pf2e.deities.g1AVEGi8QibhS007]{Walkena}</p>\n<p><strong>Hechizo de Dominio</strong> <em>@UUID[Compendium.pf2e.spells-srd.gwOYh5zMVZB0HNcT]{Zancada sin trabas}</em>; <strong>Hechizo de Dominio avanzado</strong> <em>@UUID[Compendium.pf2e.spells-srd.2jB9eyX7YekwoCvA]{Palabra de libertad}#</em></p> <p><strong>Hechizo de Libertad</strong>.\n<p>Te liberas a ti mismo y a los demás de grilletes y limitaciones.</p>"
        },
        "Knowledge Domain": {
            "name": "Knowledge Domain (Dominio del Conocimiento)",
            "description": "<p><strong>Deities</strong> @UUID[Compendium.pf2e.deities.bLI1JMpI2GXQT5AC]{Abraxas}, @UUID[Compendium.pf2e.deities.CDkr6eXR1lgu7g6A]{Andoletta}, @UUID[Compendium.pf2e.deities.UUcAqU3KeJSMNxGF]{Barzahk}, @UUID[Compendium.pf2e.deities.vEMCpm7iidycRT5D]{Brigh}, @UUID[Compendium.pf2e.deities.soiVh53y9RAeSLEk]{Casandalee}, @UUID[Compendium.pf2e.deities.tcXrtRYCOr2EmgGB]{Charon}, @UUID[Compendium.pf2e.deities.dcbf3pBSNa2q1Kkq]{Dhalavei}, @UUID[Compendium.pf2e.deities.oyp2E685VsQFKMXi]{Dranngvit}, @UUID[Compendium.pf2e.deities.8DXel4AvpyUy6oJ0]{Eritrice}, @UUID[Compendium.pf2e.deities.xxUGdZYUj5IW7E0L]{Followers of Fate}, @UUID[Compendium.pf2e.deities.tcvobm8O84qv0aO5]{Gruhastha}, @UUID[Compendium.pf2e.deities.qqqrbq4uCrelQvgH]{Irori}, @UUID[Compendium.pf2e.deities.V5PbbkZUP9N7kl6h]{Kabriri}, @UUID[Compendium.pf2e.deities.zhPhYge7VJbIlJvA]{Kols}, @UUID[Compendium.pf2e.deities.xu05XGotyT5st56H]{Lady Jingxi}, @UUID[Compendium.pf2e.deities.lUFMwdv1UOyzFhIM]{Likha}, @UUID[Compendium.pf2e.deities.ArmPZQrl0SFAKvrY]{Ma'at}, @UUID[Compendium.pf2e.deities.iMRXc519Uepf8yH3]{Magdh}, @UUID[Compendium.pf2e.deities.v1fsLP6nTkiy5ghB]{Mazludeh}, ###50c163244ac721ebbd8f918285b994###{Mephistopheles}###, @UUID[Compendium.pf2e.deities.W4QGkdn9V5ACRpkh]{Monada}, @UUID[Compendium.pf2e.deities.65o189p2eUPbqaDK]{Narriseminek}, @UUID[Compendium.pf2e.deities.9EKyWmjLUu42evxC]{Nethys}, @UUID[Compendium.pf2e.deities.RzTd9PmgnfHNlFVf]{Ng}, @UUID[Compendium.pf2e.deities.iKgERiIc8rt3fatf]{Nyarlathotep (Haunter in the Dark)}, @UUID[Compendium.pf2e.deities.3nxIpMGeCvcBIVov]{Nyarlathotep (The Crawling Chaos)}, @UUID[Compendium.pf2e.deities.JgDqFUB1NtQkGmzp]{Otolmens}, @UUID[Compendium.pf2e.deities.QZD0u1jxwz0kj8uI]{Pharasma}, @UUID[Compendium.pf2e.deities.WO9UsCY41oTtC2G0]{Pillars of Knowledge}, @UUID[Compendium.pf2e.deities.giAsBYiL2omr0x2L]{Qi Zhong}, @UUID[Compendium.pf2e.deities.u3YfcJh1C4w6n75j]{Raumya}, @UUID[Compendium.pf2e.deities.1xHnoMlCyCV70TnT]{Saloc}, @UUID[Compendium.pf2e.deities.HbuynQRCjGKtbhcC]{The Lost Prince}, @UUID[Compendium.pf2e.deities.9FWBJcADLEeP8Krf]{Valmallos}, @UUID[Compendium.pf2e.deities.ZynnoQJFz12FD0Xn]{Guardias del Faraón}, @UUID[Compendium.pf2e.deities.8wOAwLMgB1HFLo9n]{Winlas}, @UUID[Compendium.pf2e.deities.iEt6idGIEPXY2HzV]{Ydajisk}, @UUID[Compendium.pf2e.deities.SUaGdvQXxSAQAw03]{Yog-Sothoth}, @UUID[Compendium.pf2e.deities.uYpxTi4byHc5w78R]{Yuelral}, @UUID[Compendium.pf2e.deities.SCGdJmm7Wzle9jFP]{Zohls}</p>\n<p><strong>Hechizo de Dominio</strong> <em>@UUID[Compendium.pf2e.spells-srd.dXIRotMLsABDQQSB]{Recuerdo Erudito}</em>; <strong>Hechizo de Dominio Avanzado</strong> <em>@UUID[Compendium.pf2e.spells-srd.l6zjNysNedpJcmDT]{Conocer al Enemigo}</em></p>\n<p>Recibes percepciones divinas</p> <p>."
        },
        "Naga Domain": {
            "name": "Naga Domain (Dominio Naga)",
            "description": "<p><strong>Deidades</strong> @UUID[Compendium.pf2e.deities.1nQVLOyWv5kC0bCU]{Ravithra}</p>\n<p><strong>Hechizo de Dominio</strong> <em>@UUID[Compendium.pf2e.spells-srd.lXxP1ziyf4ozkpmv]{Dividir la Lengua}</em>; <strong>Hechizo de Dominio Avanzado</strong> <em>@UUID[Compendium.pf2e.spells-srd.CPNlhDQP3aDmLzB3]{Ordained Purpose}</em></p>\n<p>Al igual que los nagas serpentinos, estás en sintonía con las fuerzas cósmicas que Ravithra controló/a en su día.</p> <p> </p> <p>Los nagas serpentinos están en sintonía con las fuerzas cósmicas que Ravithra controló/a en su día."
        },
        "Wealth Domain": {
            "name": "Wealth Domain (Dominio de la riqueza)",
            "description": "<p><strong>Deities</strong> @UUID[Compendium.pf2e.deities.d56paSkcwvll2OhR]{Abadar}, @UUID[Compendium.pf2e.deities.wkDOeK7ENz1ra8IC]{Besmara}, @UUID[Compendium.pf2e.deities.6mgCX7lvKtaEYoa9]{Dwarven Pantheon}, @UUID[Compendium.pf2e.deities.mm1j6UbHqFCI8fwB]{Erastil}, @UUID[Compendium.pf2e.deities.IXLzDSMGndFb5rGY]{Falayna}, @UUID[Compendium.pf2e.deities.QlDnoOwf0PppymTn]{Hanspur}, @UUID[Compendium.pf2e.deities.WvoMr86bSSYxXKtI]{Hastur}, @UUID[Compendium.pf2e.deities.AIcDyoff265z9285]{Kofusachi}, @UUID[Compendium.pf2e.deities.sNjPI1iaS8Z43YJf]{Mammon}, @UUID[Compendium.pf2e.deities.Mv6uTJLh3VGEoGLH]{Nivi Rhombodazzle}, @UUID[Compendium.pf2e.deities.GX6PF9ifR47Xyjg9]{Norgorber}, @UUID[Compendium.pf2e.deities.u3YfcJh1C4w6n75j]{Raumya}, @UUID[Compendium.pf2e.deities.1NxkZf6ndijKeufX]{Sairazul}, @UUID[Compendium.pf2e.deities.PFp4Sdp2TDDKD62l]{Thamir}</p>\n<p><strong>Hechizo de Dominio</strong> <em>@UUID[Compendium.pf2e.spells-srd.ZeftDoh0nFAXBAWY]{Apariencia de riqueza}</em>; <strong>Hechizo de Dominio avanzado</strong> <em>@UUID[Compendium.pf2e.spells-srd.APTMURAW1N0Wpk4w]{Metales preciosos}#</em></p>\n<p>Tienes poder sobre la riqueza, el comercio y los tesoros</p> <p>."
        },
        "Water Domain": {
            "name": "Water Domain (Water Domain)",
            "description": "<p><strong>Deities</strong> @UUID[Compendium.pf2e.deities.wkDOeK7ENz1ra8IC]{Besmara}, @UUID[Compendium.pf2e.deities.tcXrtRYCOr2EmgGB]{Charon}, @UUID[Compendium.pf2e.deities.AHX89nhuVhmg8k6w]{Dagon}, @UUID[Compendium.pf2e.deities.XHDlP7o1jNz9851v]{Diomazul}, @UUID[Compendium.pf2e.deities.WOiSJ4IWjaRsSgRO]{Gerión}, @UUID[Compendium.pf2e.deities.RUzMtIQal0drPwQY]{Gogunta}, @UUID[Compendium.pf2e.deities.swwwP7eVmlNuWTb7]{Gozreh}, @UUID[Compendium.pf2e.deities.QlDnoOwf0PppymTn]{Hanspur}, @UUID[Compendium.pf2e.deities.DEKKbg6riAdL2ARf]{Hei Feng}, @UUID[Compendium.pf2e.deities.14GLsVobnZTEmJrs]{Kelizandri}, @UUID[Compendium.pf2e.deities.r6SFB1PzKsagDXff]{Lady Nanbyo}, @UUID[Compendium.pf2e.deities.SCMlQDcoU1QcF3AS]{Lysianassa}, @UUID[Compendium.pf2e.deities.hWTTS0e7J9hJfsp3]{Matravash}, @UUID[Compendium.pf2e.deities.pm8H2DbtrHM01KNV]{Naderi}, @UUID[Compendium.pf2e.deities.XYJupIPx0GW4s7eu]{Ragadahn}, @UUID[Compendium.pf2e.deities.TvxsVRztDlGcWpcI]{Sobek}, @UUID[Compendium.pf2e.deities.GUmYLD7PGmE2TOx6]{Wadjet}, @UUID[Compendium.pf2e.deities.YXmeBdOZfWgUljW1]{Ylimancha}</p>\n<p><strong>Hechizo de Dominio</strong> <em>@UUID[Compendium.pf2e.spells-srd.iAnpxrLaBU4V6Sej]{Oleada}</em>; <strong>Hechizo de Dominio Avanzado</strong> <em>@UUID[Compendium.pf2e.spells-srd.K4LXpaBWrGy6jIER]{Oleada}</em></p>\n<p>Controlas el agua y las masas de agua.</p> <p>Controlas el agua y las masas de agua.</p> <p>Controlas el agua y las masas de agua.</p> <p>Controlas el agua y las masas de agua."
        },
        "Sun Domain": {
            "name": "Sun Domain (Sun Domain)",
            "description": "<p><strong>Deities</strong> @UUID[Compendium.pf2e.deities.R0DvoLO8WbYIYhb3]{Atreia}, @UUID[Compendium.pf2e.deities.OlVCyRgOaPJji4qt]{Chohar}, @UUID[Compendium.pf2e.deities.TpAMy8tb5LrRgvqN]{Hathor}, @UUID[Compendium.pf2e.deities.rRuxBgC58PxrLzRv]{Horus}, @UUID[Compendium.pf2e.deities.aLCfEgt48SRUHnMC]{Jaidi}, @UUID[Compendium.pf2e.deities.ub0PJ5QkrdoGzzb2]{Luhar}, @UUID[Compendium.pf2e.deities.SAuFz101iP6VVwvw]{Nurgal}, @UUID[Compendium.pf2e.deities.woDEgBs1MznhzpJ4]{Ra}, @UUID[Compendium.pf2e.deities.BNycwu3I21dTh4D9]{Sarenrae}, @UUID[Compendium.pf2e.deities.s9opv94lGDRKnw6W]{Shizuru}, @UUID[Compendium.pf2e.deities.97Qe42wJN5EVUS14]{Sturovenen}, @UUID[Compendium.pf2e.deities.VG51y4FbTLdeGHZB]{La Senda de los Cielos}, @UUID[Compendium.pf2e.deities.6nq25AjImkT5GxDT]{El Rayo Prismático}, @UUID[Compendium.pf2e.deities.0R2BjVb7d9tYCIbk]{Tlehar}, @UUID[Compendium.pf2e.deities.g1AVEGi8QibhS007]{Walkena}</p>\n<p><strong>Hechizo de Dominio</strong> <em>@UUID[Compendium.pf2e.spells-srd.zul5cBTfr7NXHBZf]{Flash Deslumbrante}</em>; <strong>Hechizo de Dominio Avanzado</strong> <em>@UUID[Compendium.pf2e.spells-srd.8XuNn0h0rHE24m3B]{Luminancia Positiva}</em></p> <p>.\n<p>Aprovechas el poder del sol y de otras fuentes de luz, y castigas a los muertos vivientes.</p> <p>Empuja a los muertos vivientes."
        },
        "Perfection Domain": {
            "name": "Perfection Domain (Dominio de la perfección)",
            "description": "<p><strong>Deities</strong> @UUID[Compendium.pf2e.deities.KDFujU3Yug6AwCOz]{Arshea}, @UUID[Compendium.pf2e.deities.1fmTXGRPa8fLXZKL]{Balumbdar}, @UUID[Compendium.pf2e.deities.soiVh53y9RAeSLEk]{Casandalee}, @UUID[Compendium.pf2e.deities.tcvobm8O84qv0aO5]{Gruhastha}, @UUID[Compendium.pf2e.deities.qqqrbq4uCrelQvgH]{Irori}, @UUID[Compendium.pf2e.deities.v1fsLP6nTkiy5ghB]{Mazludeh}, @UUID[Compendium.pf2e.deities.65o189p2eUPbqaDK]{Narriseminek}, @UUID[Compendium.pf2e.deities.JgDqFUB1NtQkGmzp]{Otolmens}, @UUID[Compendium.pf2e.deities.WO9UsCY41oTtC2G0]{Pillars of Knowledge}, @UUID[Compendium.pf2e.deities.o9tK1T28LNEVzpFV]{Ragdya}, @UUID[Compendium.pf2e.deities.ra7mnjAZcEuJxI37]{Shei}, @UUID[Compendium.pf2e.deities.s9opv94lGDRKnw6W]{Shizuru}, @UUID[Compendium.pf2e.deities.JndhOIHnQoMwnsw3]{The Godclaw}</p>\n<p><strong>Hechizo de Dominio</strong> <em>@UUID[Compendium.pf2e.spells-srd.cDFAQN7Z3es07WSA]{Mente Perfeccionada}</em>; <strong>Hechizo de Dominio Avanzado</strong> <em>@UUID[Compendium.pf2e.spells-srd.8ifpNZkaxrbs3dBJ]</em></p>\n<p>Te esfuerzas por perfeccionar tu mente, tu cuerpo y tu espíritu</p> <p>."
        },
        "Destruction Domain": {
            "name": "Destruction Domain (Destruction Domain)",
            "description": "<p><strong>Deities</strong> @UUID[Compendium.pf2e.deities.bLI1JMpI2GXQT5AC]{Abraxas}, @UUID[Compendium.pf2e.deities.pCtJONJlhAugUXaG]{Ahriman}, @UUID[Compendium.pf2e.deities.cHAbE86pto5bvIWo]{Angazhan}, @UUID[Compendium.pf2e.deities.aChBtIDfA59QQ7SN]{Ayrzul}, @UUID[Compendium.pf2e.deities.sILda7I8Ak20Ioj9]{Azathoth}, @UUID[Compendium.pf2e.deities.wkDOeK7ENz1ra8IC]{Besmara}, @UUID[Compendium.pf2e.deities.AHX89nhuVhmg8k6w]{Dagon}, @UUID[Compendium.pf2e.deities.Bzfc5mIUfMxOnQWu]{Dahak}, @UUID[Compendium.pf2e.deities.dcbf3pBSNa2q1Kkq]{Dhalavei}, @UUID[Compendium.pf2e.deities.XHDlP7o1jNz9851v]{Diomazul}, @UUID[Compendium.pf2e.deities.aVyxfqY9GBjTqQul]{Eiseth}, @UUID[Compendium.pf2e.deities.6O4UGWcYERDEugzk]{Fumeiyoshi}, @UUID[Compendium.pf2e.deities.Zi1UARhode3FSFLr]{General Susumu}, @UUID[Compendium.pf2e.deities.88vRw2ZVPax4hhga]{Gorum}, @UUID[Compendium.pf2e.deities.WloVxo6HXJdS4YTt]{Groetus}, @UUID[Compendium.pf2e.deities.DEKKbg6riAdL2ARf]{Hei Feng}, @UUID[Compendium.pf2e.deities.A37XqON6QRPzQhp7]{Hshurha}, @UUID[Compendium.pf2e.deities.KIEgpcmHYtFu1dpg]{Imot}, @UUID[Compendium.pf2e.deities.14GLsVobnZTEmJrs]{Kelizandri}, @UUID[Compendium.pf2e.deities.s81N9hxffmRuy3ik]{Kerkamoth}, @UUID[Compendium.pf2e.deities.JcIf4uwKLxEWdplI]{Kostchtchie}, @UUID[Compendium.pf2e.deities.r6SFB1PzKsagDXff]{Lady Nanbyo}, @UUID[Compendium.pf2e.deities.CnDEoo6WruQCXo1o]{Lubaiko}, @UUID[Compendium.pf2e.deities.fTJLgTfEMZreJ19r]{Milani}, @UUID[Compendium.pf2e.deities.g1VxllMjs2YRIJAm]{Moloch}, @UUID[Compendium.pf2e.deities.9EKyWmjLUu42evxC]{Nethys}, @UUID[Compendium.pf2e.deities.SAuFz101iP6VVwvw]{Nurgal}, @UUID[Compendium.pf2e.deities.XYJupIPx0GW4s7eu]{Ragadahn}, @UUID[Compendium.pf2e.deities.GEBaoeiv5CB9h2Bn]{Ragathiel}, @UUID[Compendium.pf2e.deities.Bhxji0kxIbMKqdkw]{Rovagug}, @UUID[Compendium.pf2e.deities.0nQItOlce5ua6Eaf]{Sekhmet}, @UUID[Compendium.pf2e.deities.rDTXcBJ8LyqA2TkL]{Szuriel}, @UUID[Compendium.pf2e.deities.ENzMYuzBZGIujSMx]{Treerazer}, @UUID[Compendium.pf2e.deities.7L9KIqixgseSCY3X]{Ymeri}, @UUID[Compendium.pf2e.deities.8roijlQ03l9rWFFe]{Zevgavizeb}, @UUID[Compendium.pf2e.deities.ZfN7jkK6boU1FuiS]{Zon-Kuthon}</p>\n<p><strong>Hechizo de Dominio</strong> <em>@UUID[Compendium.pf2e.spells-srd.0H1ozccQGGFLUwFI]{Grito de Destrucción}</em>; <strong>Hechizo de Dominio Avanzado</strong> <em>@UUID[Compendium.pf2e.spells-srd.7d4DUTDIlzDa8OvX]{Aura Destructiva}#</em></p>\n<p>Eres un conducto para la devastación divina</p> <p>."
        },
        "Cold Domain": {
            "name": "Cold Domain (Dominio del Frío)",
            "description": "<p><strong>Deities</strong> @UUID[Compendium.pf2e.deities.uXkMGx0OD896ZQlT]{Alglenweis}, @UUID[Compendium.pf2e.deities.swwwP7eVmlNuWTb7]{Gozreh}, @UUID[Compendium.pf2e.deities.A37XqON6QRPzQhp7]{Hshurha}, @UUID[Compendium.pf2e.deities.JcIf4uwKLxEWdplI]{Kostchtchie}, @UUID[Compendium.pf2e.deities.Vzxm5FyIA40b2OSP]{Pulura}, @UUID[Compendium.pf2e.deities.w4fDrwL8VIqJDPfR]{Uvuko}, @UUID[Compendium.pf2e.deities.tb0oADxOoMhyrYRA]{Yamatsumi}</p>\n<p><strong>Hechizo de Dominio</strong> <em>@UUID[Compendium.pf2e.spells-srd.DeNz6eAUlE0IE9U3]{Winter Bolt}</em>; <strong>Hechizo de Dominio avanzado</strong> <em>@UUID[Compendium.pf2e.spells-srd.wjJW9hWY5CkkMvY5]{Diamond Dust}</em></p> <p>\n<p>Controlas el hielo, la nieve y las temperaturas bajo cero</p> <p>."
        },
        "Luck Domain": {
            "name": "Luck Domain (Dominio de la Suerte)",
            "description": "<p><strong>Deities</strong> @UUID[Compendium.pf2e.deities.eyGEoggFlTEUQmvJ]{Bes}, @UUID[Compendium.pf2e.deities.JgqH3BhuEuA4Zyqs]{Desna}, @UUID[Compendium.pf2e.deities.3ffVxwgtvR1imHm8]{Gendowyn}, @UUID[Compendium.pf2e.deities.K1tzUClsozKcdpIe]{Halcamora}, @UUID[Compendium.pf2e.deities.lSciGZGcbU9PJxQy]{Irez}, @UUID[Compendium.pf2e.deities.AIcDyoff265z9285]{Kofusachi}, @UUID[Compendium.pf2e.deities.MbJ93Nw39h2cBYi5]{Lao Shu Po}, @UUID[Compendium.pf2e.deities.Mv6uTJLh3VGEoGLH]{Nivi Rhombodazzle}</p>\n<p><strong>Hechizo de Dominio</strong> <em>@UUID[Compendium.pf2e.spells-srd.Fr2CGvWcgSyLcUi7]{Bit of Luck}</em>; <strong>Hechizo de Dominio Avanzado</strong> <em>@UUID[Compendium.pf2e.spells-srd.7OwZHalOdRCRnFmZ]{Lucky Break}</em></p>\n<p>Tienes una suerte antinatural y te mantienes fuera de peligro.</p>"
        },
        "Lightning Domain": {
            "name": "Lightning Domain (Lightning Domain)",
            "description": "<p><strong>Deities</strong> @UUID[Compendium.pf2e.deities.soiVh53y9RAeSLEk]{Casandalee}, @UUID[Compendium.pf2e.deities.EE8sNM4JraOPN669]{Cernunnos}, @UUID[Compendium.pf2e.deities.yiKle2URZ43KYVKQ]{Chamidu}, @UUID[Compendium.pf2e.deities.swwwP7eVmlNuWTb7]{Gozreh}, @UUID[Compendium.pf2e.deities.DEKKbg6riAdL2ARf]{Hei Feng}, @UUID[Compendium.pf2e.deities.CnDEoo6WruQCXo1o]{Lubaiko}, @UUID[Compendium.pf2e.deities.Ij1KRM8ufkEjGnR3]{Ranginori}</p>\n<p><strong>Hechizo de Dominio</strong> <em>@UUID[Compendium.pf2e.spells-srd.g1eY1vN44mgluE33]{Jabalina Cargada}</em>; <strong>Hechizo de Dominio Avanzado</strong> <em>@UUID[Compendium.pf2e.spells-srd.VUwpDY4Z91s9QCg0]{Botella la Tormenta}</em></p> <p>.\n<p>Controlas la electricidad, los truenos y las tormentas.</p> <p> </p> <p>Controlas la electricidad, los truenos y las tormentas."
        },
        "Secrecy Domain": {
            "name": "Secrecy Domain (Dominio del Secreto)",
            "description": "<p><strong>Deities</strong> @UUID[Compendium.pf2e.deities.aChBtIDfA59QQ7SN]{Ayrzul}, @UUID[Compendium.pf2e.deities.aj4ChTlDcZCmrtJD]{Baphomet}, @UUID[Compendium.pf2e.deities.c9NFjRR8gr6CWpjl]{Black Butterfly}, @UUID[Compendium.pf2e.deities.AlL9GtlTldbqNoVm]{Calistria}, @UUID[Compendium.pf2e.deities.dcbf3pBSNa2q1Kkq]{Dhalavei}, @UUID[Compendium.pf2e.deities.Dm8qlzpUj7g82QFv]{Erecura}, @UUID[Compendium.pf2e.deities.WvoMr86bSSYxXKtI]{Hastur}, @UUID[Compendium.pf2e.deities.kiTcZxmKxGPCwDpg]{Kalekot}, @UUID[Compendium.pf2e.deities.wjXNXFWBLbJaeZQR]{Ketephys}, @UUID[Compendium.pf2e.deities.KWVdoAm3b01M8Lcp]{Mephistopheles}, @UUID[Compendium.pf2e.deities.RzTd9PmgnfHNlFVf]{Ng}, @UUID[Compendium.pf2e.deities.GX6PF9ifR47Xyjg9]{Norgorber}, @UUID[Compendium.pf2e.deities.WO9UsCY41oTtC2G0]{Pillars of Knowledge}, @UUID[Compendium.pf2e.deities.iJyhAFmHOLZBvWnJ]{Sivanah}</p>\n<p><strong>Hechizo de Dominio</strong> <em>@UUID[Compendium.pf2e.spells-srd.k43PIYwuQqjeJ3S3]{Silencio impuesta}</em>; <strong>Hechizo de Dominio avanzado</strong> <em>@UUID[Compendium.pf2e.spells-srd.OsrtOeG0TvDNnEFH]{Salvaguardar secreto}</em></p>\n<p>Proteges los secretos y los mantienes escondidos.</p>"
        },
        "Dreams Domain": {
            "name": "Dreams Domain (Dominio de los Sues)",
            "description": "<p><strong>Deities</strong> @UUID[Compendium.pf2e.deities.JgqH3BhuEuA4Zyqs]{Desna}, @UUID[Compendium.pf2e.deities.VvxEvEKhCGRwrMJp]{Imbrex}, @UUID[Compendium.pf2e.deities.ub0PJ5QkrdoGzzb2]{Luhar}, @UUID[Compendium.pf2e.deities.mebdNVKeKuTmDDHj]{Xhamen-Dor}</p>\n<p><strong>Hechizo de Dominio</strong> <em>@UUID[Compendium.pf2e.spells-srd.BRtKFk0PKfWIlCAB]{Dulce Sueño}</em>; <strong>Hechizo de Dominio avanzado</strong> <em>@UUID[Compendium.pf2e.spells-srd.PztLrElcZfLwRnEq]{Llamada del soñador}#</em></p> <p>.\n<p>Tienes el poder de entrar en los sueños y manipularlos</p> <p>."
        },
        "Creation Domain": {
            "name": "Creation Domain (Dominio de la creación)",
            "description": "<p><strong>Deities</strong> @UUID[Compendium.pf2e.deities.uXkMGx0OD896ZQlT]{Alglenweis}, @UUID[Compendium.pf2e.deities.o8ayCv3LAHWlu0vQ]{Apsu}, @UUID[Compendium.pf2e.deities.uydTiyN5AzhBnQY8]{Ardad Lili}, @UUID[Compendium.pf2e.deities.vEMCpm7iidycRT5D]{Brigh}, @UUID[Compendium.pf2e.deities.soiVh53y9RAeSLEk]{Casandalee}, @UUID[Compendium.pf2e.deities.M3eb94Nd6uXti2IK]{Daikitsu}, @UUID[Compendium.pf2e.deities.AMFkYKUNQ3kCD0ob]{Doloras}, @UUID[Compendium.pf2e.deities.6mgCX7lvKtaEYoa9]{Dwarven Pantheon}, @UUID[Compendium.pf2e.deities.Zw8nhcpRxinoYRSa]{Elven Pantheon}, @UUID[Compendium.pf2e.deities.IXLzDSMGndFb5rGY]{Falayna}, @UUID[Compendium.pf2e.deities.liXIbl7y8www2eAn]{Findeladlara}, @UUID[Compendium.pf2e.deities.fuPTR1laXO6EionS]{Grandmother Spider}, @UUID[Compendium.pf2e.deities.xu05XGotyT5st56H]{Lady Jingxi}, @UUID[Compendium.pf2e.deities.lUFMwdv1UOyzFhIM]{Likha}, @UUID[Compendium.pf2e.deities.sNjPI1iaS8Z43YJf]{Mammon}, @UUID[Compendium.pf2e.deities.W4QGkdn9V5ACRpkh]{Monad}, @UUID[Compendium.pf2e.deities.jL1qiVOZBKXETtVD]{Nocticula}, @UUID[Compendium.pf2e.deities.JgDqFUB1NtQkGmzp]{Otolmens}, @UUID[Compendium.pf2e.deities.WO9UsCY41oTtC2G0]{Pillars of Knowledge}, @UUID[Compendium.pf2e.deities.gxwmzxUWBOhdgFSN]{Shelyn}, @UUID[Compendium.pf2e.deities.vnmoAGURp8oWCY6R]{Soralyon}, @UUID[Compendium.pf2e.deities.6nq25AjImkT5GxDT]{The Prismatic Ray}, @UUID[Compendium.pf2e.deities.0R2BjVb7d9tYCIbk]{Tlehar}, @UUID[Compendium.pf2e.deities.sZrdzh0ANQnZGXJb]{Torag}, @UUID[Compendium.pf2e.deities.w4fDrwL8VIqJDPfR]{Uvuko}, @UUID[Compendium.pf2e.deities.uYpxTi4byHc5w78R]{Yuelral}</p>\n<p><strong>Hechizo de Dominio</strong> <em>@UUID[Compendium.pf2e.spells-srd.xTpp8dHZsNMDm75B]{Salpicadura de arte}</em>; <strong>Hechizo de Dominio avanzado</strong> <em>@UUID[Compendium.pf2e.spells-srd.eb4FXf62NYArTqek]{Floritura artística}</em></p> <p>.\n<p>Tienes habilidades divinas relacionadas con la Artesanía y el arte</p> <p>."
        },
        "Passion Domain": {
            "name": "Passion Domain (Passion Domain)",
            "description": "<p><strong>Deities</strong> @UUID[Compendium.pf2e.deities.uydTiyN5AzhBnQY8]{Ardad Lili}, @UUID[Compendium.pf2e.deities.KDFujU3Yug6AwCOz]{Arshea}, @UUID[Compendium.pf2e.deities.zRmAXj7FSlrMfDeA]{Bastet}, @UUID[Compendium.pf2e.deities.remyY1BwhEVmBwya]{Belial}, @UUID[Compendium.pf2e.deities.HD7g8T8ioy1EH3M8]{Bolka}, @UUID[Compendium.pf2e.deities.AlL9GtlTldbqNoVm]{Calistria}, @UUID[Compendium.pf2e.deities.EE8sNM4JraOPN669]{Cernunnos}, @UUID[Compendium.pf2e.deities.TpAMy8tb5LrRgvqN]{Hathor}, @UUID[Compendium.pf2e.deities.EFyDjlH7XjGq7Erd]{Isis}, @UUID[Compendium.pf2e.deities.AIcDyoff265z9285]{Kofusachi}, @UUID[Compendium.pf2e.deities.lUFMwdv1UOyzFhIM]{Likha}, @UUID[Compendium.pf2e.deities.QibpLccM5bLUMopj]{Lymnieris}, @UUID[Compendium.pf2e.deities.pm8H2DbtrHM01KNV]{Naderi}, @UUID[Compendium.pf2e.deities.gsFaxWHbZmc1moY6]{Nalinivati}, @UUID[Compendium.pf2e.deities.gxwmzxUWBOhdgFSN]{Shelyn}, @UUID[Compendium.pf2e.deities.pVQzTL5elNTxvffu]{The Green Mother}, @UUID[Compendium.pf2e.deities.nuqIimigyt986WLE]{The Lantern King}, @UUID[Compendium.pf2e.deities.0R2BjVb7d9tYCIbk]{Tlehar}</p>\n<p><strong>Hechizo de Dominio</strong> <em>@UUID[Compendium.pf2e.spells-srd.ut9IhJ9jSZSHDUop]{Tacto cautivador}</em>; <strong>Hechizo de Dominio avanzado</strong> <em>@UUID[Compendium.pf2e.spells-srd.jJphHQlENHFlSElH]{Captivating Adoration}</em></p> <p>.\n<p>Evocas la pasión, ya sea como amor o lujuria</p> <p>."
        },
        "Repose Domain": {
            "name": "Repose Domain (Dominio de reposo)",
            "description": "<p><strong>Deities</strong> @UUID[Compendium.pf2e.deities.gutbzYTZvRTnq4on]{Adanye}, @UUID[Compendium.pf2e.deities.DJ7LDFTtns6YFodT]{Ashava}, @UUID[Compendium.pf2e.deities.RbslST0RZPXj6Eby]{Ashukharma}, @UUID[Compendium.pf2e.deities.AMFkYKUNQ3kCD0ob]{Doloras}, @UUID[Compendium.pf2e.deities.VEyowuhC4FsBnG8c]{Folgrit}, @UUID[Compendium.pf2e.deities.xu05XGotyT5st56H]{Lady Jingxi}, @UUID[Compendium.pf2e.deities.QibpLccM5bLUMopj]{Lymnieris}, @UUID[Compendium.pf2e.deities.BNycwu3I21dTh4D9]{Sarenrae}, @UUID[Compendium.pf2e.deities.gxwmzxUWBOhdgFSN]{Shelyn}, @UUID[Compendium.pf2e.deities.HbuynQRCjGKtbhcC]{The Lost Prince}, @UUID[Compendium.pf2e.deities.aTYy1WHwAZiuei4h]{Tsukiyo}</p>\n<p><strong>Hechizo de Dominio</strong> <em>@UUID[Compendium.pf2e.spells-srd.cJq5NarY0eOZN74A]{Compartir Carga}</em>; <strong>Hechizo de Dominio avanzado</strong> <em>@UUID[Compendium.pf2e.spells-srd.yY1H5zhO5dHmD8lz]{Fuente de Serenidad}</em></p>\n<p>Alivias las cargas mentales</p> <p>."
        },
        "Star Domain": {
            "name": "Star Domain (Dominio Estrella)",
            "description": "<p><strong>Deidades</strong> @UUID[Compendium.pf2e.deities.c9NFjRR8gr6CWpjl]{Mariposa Negra}, @UUID[Compendium.pf2e.deities.oV5cnlPJQS8JfMIg]{Cosmic Caravan}, @UUID[Compendium.pf2e.deities.JgqH3BhuEuA4Zyqs]{Desna}, @UUID[Compendium.pf2e.deities.liXIbl7y8www2eAn]{Findeladlara}, @UUID[Compendium.pf2e.deities.ub0PJ5QkrdoGzzb2]{Luhar}, @UUID[Compendium.pf2e.deities.ArmPZQrl0SFAKvrY]{Ma'at}, @UUID[Compendium.pf2e.deities.Vzxm5FyIA40b2OSP]{Pulura}, @UUID[Compendium.pf2e.deities.VG51y4FbTLdeGHZB]{El Camino de los Cielos}</p>\n<p><strong>Hechizo de Dominio</strong> <em>@UUID[Compendium.pf2e.spells-srd.Yrek2Yd4k3DPC2zV]{Estrella Cenital}#</em>; <strong>Hechizo de Dominio Avanzado</strong> <em>@UUID[Compendium.pf2e.spells-srd.KG7amdeXWc7MjGXe]{Asterismo}</em></p>\n<p>Tú orden imperiosa el poder de las estrellas</p> <p>."
        },
        "Void Domain": {
            "name": "Void Domain (Void Domain)",
            "description": "<p><strong>Deidades</strong> @UUID[Compendium.pf2e.deities.sILda7I8Ak20Ioj9]{Azathoth}, @UUID[Compendium.pf2e.deities.c9NFjRR8gr6CWpjl]{Mariposa Negra}, @UUID[Compendium.pf2e.deities.oV5cnlPJQS8JfMIg]{Cosmic Caravan}, @UUID[Compendium.pf2e.deities.JgqH3BhuEuA4Zyqs]{Desna}, @UUID[Compendium.pf2e.deities.WloVxo6HXJdS4YTt]{Groetus}, @UUID[Compendium.pf2e.deities.WvoMr86bSSYxXKtI]{Hastur}, @UUID[Compendium.pf2e.deities.s81N9hxffmRuy3ik]{Kerkamoth}, @UUID[Compendium.pf2e.deities.W4QGkdn9V5ACRpkh]{Monad}, @UUID[Compendium.pf2e.deities.8Oy4qHylOOp79JxD]{Nhimbaloth}, @UUID[Compendium.pf2e.deities.Bhxji0kxIbMKqdkw]{Rovagug}, @UUID[Compendium.pf2e.deities.VG51y4FbTLdeGHZB]{The Path of the Heavens}, @UUID[Compendium.pf2e.deities.SUaGdvQXxSAQAw03]{Yog-Sothoth}, @UUID[Compendium.pf2e.deities.ZfN7jkK6boU1FuiS]{Zon-Kuthon}</p>\n<p><strong>Hechizo de Dominio</strong> <em>@UUID[Compendium.pf2e.spells-srd.0cF9HvHzzWSbCFBP]{Empty Inside}</em>; <strong>Hechizo de Dominio Avanzado</strong> <em>@UUID[Compendium.pf2e.spells-srd.iMmexY6ZosLS4I5R]{Puerta al Más Allá}</em></p>\n<p>Atraes el poder del vacío.</p>"
        },
        "Death Domain": {
            "name": "Death Domain (Dominio de la Muerte)",
            "description": "<p><strong>Deities</strong> @UUID[Compendium.pf2e.deities.51kMMWaT6CqpGlGk]{Achaekek}, @UUID[Compendium.pf2e.deities.pCtJONJlhAugUXaG]{Ahriman}, @UUID[Compendium.pf2e.deities.UUcAqU3KeJSMNxGF]{Barzahk}, @UUID[Compendium.pf2e.deities.tcXrtRYCOr2EmgGB]{Charon}, @UUID[Compendium.pf2e.deities.H1VrZ1QX0d2aPXT8]{Dammerich}, @UUID[Compendium.pf2e.deities.QlDnoOwf0PppymTn]{Hanspur}, @UUID[Compendium.pf2e.deities.KIEgpcmHYtFu1dpg]{Imot}, @UUID[Compendium.pf2e.deities.kiTcZxmKxGPCwDpg]{Kalekot}, @UUID[Compendium.pf2e.deities.nsiDGdgbAzkTQzOt]{Magrim}, @UUID[Compendium.pf2e.deities.E1dUhoSEf2XfklU2]{Mother Vulture}, @UUID[Compendium.pf2e.deities.pm8H2DbtrHM01KNV]{Naderi}, @UUID[Compendium.pf2e.deities.hhV2g6aU8jKLEca1]{Narakaas}, @UUID[Compendium.pf2e.deities.GX6PF9ifR47Xyjg9]{Norgorber}, @UUID[Compendium.pf2e.deities.QZD0u1jxwz0kj8uI]{Pharasma}, @UUID[Compendium.pf2e.deities.1xHnoMlCyCV70TnT]{Saloc}, @UUID[Compendium.pf2e.deities.zzhYFcShT9JoE2Mp]{Shax}, @UUID[Compendium.pf2e.deities.83jKKHQPoqVylmrF]{Yaezhing}, @UUID[Compendium.pf2e.deities.LLMTMgARSTlO7S9U]{Zyphus}</p>\n<p><strong>Hechizo de Dominio</strong> <em>@UUID[Compendium.pf2e.spells-srd.HG4afO9EOGEU9bZN]{La Llamada de la Muerte}</em>; <strong>Hechizo de Dominio Avanzado</strong> <em>@UUID[Compendium.pf2e.spells-srd.J5MNC4xq3CHH31qT]{Erradicar la Muerte}</em></p>\n<p>Tienes el poder de acabar con vidas y destruir muertos vivientes</p> <p>."
        },
        "Fire Domain": {
            "name": "Fire Domain (Dominio del Fuego)",
            "description": "<p><strong>Deities</strong> @UUID[Compendium.pf2e.deities.gutbzYTZvRTnq4on]{Adanye}, @UUID[Compendium.pf2e.deities.Xb1N5YfxboJH26Jh]{Angradd}, @UUID[Compendium.pf2e.deities.QRkcFciCOmFoxF1B]{Asmodeus}, @UUID[Compendium.pf2e.deities.R0DvoLO8WbYIYhb3]{Atreia}, @UUID[Compendium.pf2e.deities.vEMCpm7iidycRT5D]{Brigh}, @UUID[Compendium.pf2e.deities.OlVCyRgOaPJji4qt]{Chohar}, @UUID[Compendium.pf2e.deities.Bzfc5mIUfMxOnQWu]{Dahak}, @UUID[Compendium.pf2e.deities.39z55kowQFOUH2v0]{Droskar}, @UUID[Compendium.pf2e.deities.r6SFB1PzKsagDXff]{Lady Nanbyo}, @UUID[Compendium.pf2e.deities.CnDEoo6WruQCXo1o]{Lubaiko}, @UUID[Compendium.pf2e.deities.g1VxllMjs2YRIJAm]{Moloch}, @UUID[Compendium.pf2e.deities.SAuFz101iP6VVwvw]{Nurgal}, @UUID[Compendium.pf2e.deities.woDEgBs1MznhzpJ4]{Ra}, @UUID[Compendium.pf2e.deities.GEBaoeiv5CB9h2Bn]{Ragathiel}, @UUID[Compendium.pf2e.deities.BNycwu3I21dTh4D9]{Sarenrae}, @UUID[Compendium.pf2e.deities.rDTXcBJ8LyqA2TkL]{Szuriel}, @UUID[Compendium.pf2e.deities.tb0oADxOoMhyrYRA]{Yamatsumi}, @UUID[Compendium.pf2e.deities.7L9KIqixgseSCY3X]{Ymeri}</p>\n<p><strong>Hechizo de Dominio</strong> <em>@UUID[Compendium.pf2e.spells-srd.oJKZi8OQgmVXHOc0]{Rayo de Fuego}</em>; <strong>Hechizo de Dominio Avanzado</strong> <em>@UUID[Compendium.pf2e.spells-srd.y7Tusv3CieZktkkV]{Barrera de llamas}#</em></p>\n<p>Controlas las llamas.</p>"
        },
        "Trickery Domain": {
            "name": "Trickery Domain (Trickery Domain)",
            "description": "<p><strong>Deities</strong> @UUID[Compendium.pf2e.deities.51kMMWaT6CqpGlGk]{Achaekek}, @UUID[Compendium.pf2e.deities.pCtJONJlhAugUXaG]{Ahriman}, @UUID[Compendium.pf2e.deities.QRkcFciCOmFoxF1B]{Asmodeus}, @UUID[Compendium.pf2e.deities.9WD0hbUT0IbnuTiM]{Belcebú}, @UUID[Compendium.pf2e.deities.zRmAXj7FSlrMfDeA]{Bastet}, @UUID[Compendium.pf2e.deities.remyY1BwhEVmBwya]{Belial}, @UUID[Compendium.pf2e.deities.wkDOeK7ENz1ra8IC]{Besmara}, @UUID[Compendium.pf2e.deities.AlL9GtlTldbqNoVm]{Calistria}, @UUID[Compendium.pf2e.deities.4GO4iT585ynLJnc8]{Chaldira}, @UUID[Compendium.pf2e.deities.dcbf3pBSNa2q1Kkq]{Dhalavei}, @UUID[Compendium.pf2e.deities.39z55kowQFOUH2v0]{Droskar}, @UUID[Compendium.pf2e.deities.Dm8qlzpUj7g82QFv]{Erecura}, @UUID[Compendium.pf2e.deities.fuPTR1laXO6EionS]{Grandmother Spider}, @UUID[Compendium.pf2e.deities.ItYptsfjV8XvfhOV]{Lahkgya}, @UUID[Compendium.pf2e.deities.aipkJQxP4GBsTaGq]{Lamashtu}, @UUID[Compendium.pf2e.deities.MbJ93Nw39h2cBYi5]{Lao Shu Po}, @UUID[Compendium.pf2e.deities.Af4TSJjutVi9Vdwi]{Mahathallah}, @UUID[Compendium.pf2e.deities.Mv6uTJLh3VGEoGLH]{Nivi Rhombodazzle}, @UUID[Compendium.pf2e.deities.GX6PF9ifR47Xyjg9]{Norgorber}, @UUID[Compendium.pf2e.deities.iKgERiIc8rt3fatf]{Nyarlathotep (Haunter in the Dark)}, @UUID[Compendium.pf2e.deities.3nxIpMGeCvcBIVov]{Nyarlathotep (The Crawling Chaos)}, @UUID[Compendium.pf2e.deities.IZcdF1G8ZsnMotaM]{Pazuzu}, @UUID[Compendium.pf2e.deities.zzhYFcShT9JoE2Mp]{Shax}, @UUID[Compendium.pf2e.deities.BrbXGyzCeORNyJT5]{Sifkesh}, @UUID[Compendium.pf2e.deities.iJyhAFmHOLZBvWnJ]{Sivanah}, @UUID[Compendium.pf2e.deities.BLNXYqvzmLgjMq2p]{Sun Wukong}, @UUID[Compendium.pf2e.deities.PFp4Sdp2TDDKD62l]{Thamir}, @UUID[Compendium.pf2e.deities.nuqIimigyt986WLE]{The Lantern King}, @UUID[Compendium.pf2e.deities.83jKKHQPoqVylmrF]{Yaezhing}, @UUID[Compendium.pf2e.deities.iEt6idGIEPXY2HzV]{Ydajisk}</p>\n<p><strong>Hechizo de Dominio</strong> <em>@UUID[Compendium.pf2e.spells-srd.P9bqJsF3WkxGAJKJ]{Cambiante Repentino}</em>; <strong>Hechizo de Dominio Avanzado</strong> <em>@UUID[Compendium.pf2e.spells-srd.ZhLYJlOZzUB1OKoe]{Gemelo del bromista}</em></p>\n<p>Engañas a los demás y causas travesuras</p> <p>."
        },
        "Travel Domain": {
            "name": "Travel Domain (Dominio de Viaje)",
            "description": "<p><strong>Deities</strong> @UUID[Compendium.pf2e.deities.d56paSkcwvll2OhR]{Abadar}, @UUID[Compendium.pf2e.deities.o8ayCv3LAHWlu0vQ]{Apsu}, @UUID[Compendium.pf2e.deities.oiEo6tDP3gICHtfZ]{Barbatos}, @UUID[Compendium.pf2e.deities.vSUz97Y29l1O50bC]{Count Ranalc}, @UUID[Compendium.pf2e.deities.JgqH3BhuEuA4Zyqs]{Desna}, @UUID[Compendium.pf2e.deities.oyp2E685VsQFKMXi]{Dranngvit}, @UUID[Compendium.pf2e.deities.swwwP7eVmlNuWTb7]{Gozreh}, @UUID[Compendium.pf2e.deities.tcvobm8O84qv0aO5]{Gruhastha}, @UUID[Compendium.pf2e.deities.QlDnoOwf0PppymTn]{Hanspur}, @UUID[Compendium.pf2e.deities.DEKKbg6riAdL2ARf]{Hei Feng}, @UUID[Compendium.pf2e.deities.bF77ydtptI54STl9]{Jaidz}, @UUID[Compendium.pf2e.deities.14GLsVobnZTEmJrs]{Kelizandri}, @UUID[Compendium.pf2e.deities.AIcDyoff265z9285]{Kofusachi}, @UUID[Compendium.pf2e.deities.hWTTS0e7J9hJfsp3]{Matravash}, @UUID[Compendium.pf2e.deities.RzTd9PmgnfHNlFVf]{Ng}, @UUID[Compendium.pf2e.deities.jL1qiVOZBKXETtVD]{Nocticula}, @UUID[Compendium.pf2e.deities.Ij1KRM8ufkEjGnR3]{Ranginori}, @UUID[Compendium.pf2e.deities.VG51y4FbTLdeGHZB]{El Sendero de los Cielos}, @UUID[Compendium.pf2e.deities.6nq25AjImkT5GxDT]{El Rayo Prismático}, @UUID[Compendium.pf2e.deities.GUmYLD7PGmE2TOx6]{Wadjet}, @UUID[Compendium.pf2e.deities.YXmeBdOZfWgUljW1]{Ylimancha}, @UUID[Compendium.pf2e.deities.SUaGdvQXxSAQAw03]{Yog-Sothoth}</p>\n<p><strong>Hechizo de dominio</strong> <em>@UUID[Compendium.pf2e.spells-srd.cOjlzWerBwbPWVkX]{Pies ágiles}</em>; <strong>Hechizo de dominio avanzado</strong> <em>@UUID[Compendium.pf2e.spells-srd.LrhTFHUtSS9ahogL]{Tránsito del viajero}</em></p>\n<p>Tienes poder sobre el movimiento y los viajes</p> <p>."
        },
        "Vigil Domain": {
            "name": "Vigil Domain (Dominio de la Vigilia)",
            "description": "<p><strong>Deities</strong> @UUID[Compendium.pf2e.deities.5YUNikBpJZ596MRD]{Anubis}, @UUID[Compendium.pf2e.deities.UUcAqU3KeJSMNxGF]{Barzahk}, @UUID[Compendium.pf2e.deities.OlVCyRgOaPJji4qt]{Chohar}, @UUID[Compendium.pf2e.deities.H1VrZ1QX0d2aPXT8]{Dammerich}, @UUID[Compendium.pf2e.deities.oyp2E685VsQFKMXi]{Dranngvit}, @UUID[Compendium.pf2e.deities.qqqrbq4uCrelQvgH]{Irori}, @UUID[Compendium.pf2e.deities.V5PbbkZUP9N7kl6h]{Kabriri}, @UUID[Compendium.pf2e.deities.QZD0u1jxwz0kj8uI]{Pharasma}, @UUID[Compendium.pf2e.deities.XYJupIPx0GW4s7eu]{Ragadahn}, @UUID[Compendium.pf2e.deities.s9opv94lGDRKnw6W]{Shizuru}, @UUID[Compendium.pf2e.deities.HbuynQRCjGKtbhcC]{El Príncipe Perdido}, @UUID[Compendium.pf2e.deities.0R2BjVb7d9tYCIbk]{Tlehar}, @UUID[Compendium.pf2e.deities.8wOAwLMgB1HFLo9n]{Winlas}</p>\n<p><strong>Hechizo de Dominio</strong> <em>@UUID[Compendium.pf2e.spells-srd.RztmhJrLLQWoGVdB]{Memoria de Objetos}</em>; <strong>Hechizo de Dominio Avanzado</strong> <em>@UUID[Compendium.pf2e.spells-srd.nrW6lGV4xDMqLS3P]{Recuerda a los Perdidos}</em></p>\n<p>Vigilas a los que hace tiempo que fallecieron y guardas sus secretos</p> <p>."
        },
        "Zeal Domain": {
            "name": "Zeal Domain (Dominio Zeal)",
            "description": "<p><strong>Deities</strong> @UUID[Compendium.pf2e.deities.51kMMWaT6CqpGlGk]{Achaekek}, @UUID[Compendium.pf2e.deities.Xb1N5YfxboJH26Jh]{Angradd}, @UUID[Compendium.pf2e.deities.aj4ChTlDcZCmrtJD]{Baphomet}, @UUID[Compendium.pf2e.deities.remyY1BwhEVmBwya]{Belial}, @UUID[Compendium.pf2e.deities.EE8sNM4JraOPN669]{Cernunnos}, @UUID[Compendium.pf2e.deities.4GO4iT585ynLJnc8]{Chaldira}, @UUID[Compendium.pf2e.deities.OlVCyRgOaPJji4qt]{Chohar}, @UUID[Compendium.pf2e.deities.AHX89nhuVhmg8k6w]{Dagon}, @UUID[Compendium.pf2e.deities.Bzfc5mIUfMxOnQWu]{Dahak}, @UUID[Compendium.pf2e.deities.XHDlP7o1jNz9851v]{Diomazul}, @UUID[Compendium.pf2e.deities.aVyxfqY9GBjTqQul]{Eiseth}, @UUID[Compendium.pf2e.deities.Zi1UARhode3FSFLr]{General Susumu}, @UUID[Compendium.pf2e.deities.88vRw2ZVPax4hhga]{Gorum}, @UUID[Compendium.pf2e.deities.zlJGKpeLBwajP91o]{Gyronna}, @UUID[Compendium.pf2e.deities.eErEiVmBqltYXFJ6]{Iomedae}, @UUID[Compendium.pf2e.deities.JcIf4uwKLxEWdplI]{Kostchtchie}, @UUID[Compendium.pf2e.deities.r5vooG7NfvA9prJK]{Kurgess}, @UUID[Compendium.pf2e.deities.CnDEoo6WruQCXo1o]{Lubaiko}, @UUID[Compendium.pf2e.deities.ub0PJ5QkrdoGzzb2]{Luhar}, @UUID[Compendium.pf2e.deities.fTJLgTfEMZreJ19r]{Milani}, @UUID[Compendium.pf2e.deities.GEBaoeiv5CB9h2Bn]{Ragathiel}, @UUID[Compendium.pf2e.deities.Bhxji0kxIbMKqdkw]{Rovagug}, @UUID[Compendium.pf2e.deities.DFxbPmQLOqcmbPTz]{Tanagaar}, @UUID[Compendium.pf2e.deities.JndhOIHnQoMwnsw3]{The Godclaw}, @UUID[Compendium.pf2e.deities.0R2BjVb7d9tYCIbk]{Tlehar}, @UUID[Compendium.pf2e.deities.y93whGnGZjFyw5A0]{Vildeis}, @UUID[Compendium.pf2e.deities.GUmYLD7PGmE2TOx6]{Wadjet}, @UUID[Compendium.pf2e.deities.4bEPoujxhYdUyUOg]{Ydersius}, @UUID[Compendium.pf2e.deities.7L9KIqixgseSCY3X]{Ymeri}</p>\n<p><strong>Hechizo de Dominio</strong> <em>@UUID[Compendium.pf2e.spells-srd.W37iBXLsY2trJ1rS]{Oleaje de arma}</em>; <strong>Hechizo de Dominio avanzado</strong> <em>@UUID[Compendium.pf2e.spells-srd.I8CPe9Pp7GABqOyB]{Celo de batalla}#</em></p> <p>\n<p>Tu fuego interior aumenta tu destreza en combate</p> <p>."
        }
    },
    "mapping": {
        "description": "content"
    }
}