{
    "label": "Problems en Otari",
    "reference": "pf2e.pathfinder-bestiary",
    "entries": {
        "Bugbear Marauder": {
            "name": "Bugbear Marauder (Bugbear Marauder)",
            "description": "",
            "senses": "visión en la oscuridad"
        },
        "Orc Commander": {
            "name": "Orc Commander (Comandante orco)",
            "description": "",
            "senses": "visión en la oscuridad"
        },
        "Collapsing Porch": {
            "name": "Collapsing Porch (Porche Colapsable)",
            "description": "",
            "desc (hazard)": "<p>Una sección de tablas del suelo astilladas y podridas dejan caer a una criatura 2 metros sobre rocas desiguales y fragmentos de madera punzantes.</p>",
            "stealth": "<p>(o 0 después de que se desencadene el peligro)</p>",
            "disable": "<p>@Check[type:crafting|dc:15]# (entrenado) para sustituir o cubrir las secciones débiles del suelo, o @Check[type:survival|dc:15]# (entrenado) para desmenuzar las tablas podridas del suelo desde una distancia segura</p>",
            "reset": "<p>Una vez que esta sección del porche se ha derrumbado, las criaturas pueden seguir cayendo por el agujero hasta que el porche sea Reparado.</p>"
        },
        "Tongues of Flame": {
            "name": "Tongues of Flame (Lenguas de fuegoígera)",
            "description": "",
            "hpdetails": "para destruir una sola boquilla; <strong>Puerta</strong> Dureza 6, <strong>HP</strong> 22 (BT 11) para romper una puerta y escapar del pasillo",
            "desc (hazard)": "<p>Las boquillas escondidas en el techo de los cuatro pasillos que conducen a la intersección rocían chorros de llamas a lo largo de sus longitudes cuando se desencadena la trampa.</p> <p>Las boquillas escondidas en el techo de los cuatro pasillos que conducen a la intersección rocían chorros de llamas a lo largo de sus longitudes cuando se desencadena la trampa.",
            "disable": "<p>@Check[type:thievery|dc:22|traits:action:disable-a-device]# para desactivar una sola boquilla, @Check[type:thievery|dc:21|traits:action:pick-a-lock] dos veces para desbloquear una puerta, o @Check[type:thievery|dc:25|traits:action:disable-a-device]# para desactivar la trampa desde el panel de control. Un héroe que no esté entrenado en Latrocinio falla automáticamente estos chequeos.</p> <p>",
            "reset": "<p>La trampa se desactiva y se reinicia después de 10 minutos. Después de que la trampa se active por cuarta vez, se queda sin combustible y debe reiniciarse manualmente.</p> <p>La trampa se desactiva y se reinicia después de 10 minutos.",
            "routine": "<p>(4 acciones) La trampa pierde 1 acción cada turno por cada boquilla desactivada. En cada acción, una boquilla diferente dispara un chorro de llamas por un pasillo distinto, infligiendo [[/r 3d6[fuego]]] de daño a cada criatura en los primeros 3 metros del pasillo pasado el cruce (@Check[type:reflex|dc:22|basic:true]#).</p>\n<p>Una criatura que se ponga de pie en la intersección del pasillo sólo puede ser alcanzada por un chorro de llamas por asalto aunque esté en la zona de varios chorros de llamas. La criatura sólo hace una tirada de salvación por asalto, pero sufre una penalización de circunstancia de -2 a su tirada de salvación.</p> <p>"
        },
        "Morgrym Leadbuster": {
            "name": "Morgrym Leadbuster (Morgrym Leadbuster)",
            "description": "",
            "senses": "visión en la oscuridad"
        },
        "Web Lurker Noose": {
            "name": "Web Lurker Noose (Lazo acechador de telara)",
            "description": "",
            "desc (hazard)": "<p>Una telara discreta a la altura de la garganta engancha a una criatura que camina hacia ella.</p>",
            "disable": "<p>@Check[type:survival|dc:18] (entrenado) o @Check[type:thievery|dc:18|traits:action:disable-a-device]# (experto) para reorganizar las telara."
        },
        "Hargrit Leadbuster": {
            "name": "Hargrit Leadbuster (Hargrit Leadbuster)",
            "description": "",
            "senses": "visión en la oscuridad"
        },
        "Kotgar Leadbuster": {
            "name": "Kotgar Leadbuster (Kotgar Leadbuster)",
            "description": "",
            "senses": "visión en la oscuridad"
        },
        "Viper Urn": {
            "name": "Viper Urn (Viper Urn)",
            "description": "",
            "desc (hazard)": "<p>Una urna de cerámica que contiene unas puntas de víbora enroscadas y que se estalla al tirar de un cable trampa.</p>",
            "disable": "<p>@Check[type:thievery|dc:15|traits:action:disable-a-device]# (entrenado) para estabilizar la urna, o @Check[type:athletics|dc:15]# para bajar con cuidado la pesada urna</p>"
        },
        "Omblin Leadbuster": {
            "name": "Omblin Leadbuster (Omblin Leadbuster)",
            "description": "",
            "senses": "visión en la oscuridad"
        },
        "Brimstone Rat": {
            "name": "Brimstone Rat (Rata de azufre)",
            "description": "",
            "senses": "visión con poca luz"
        },
        "Scalliwing": {
            "name": "Scalliwing (Escama alada)",
            "description": "<p>Los couatls son grandes serpientes de colores brillantes con alas emplumadas. De buen carácter, estas criaturas ayudan a los mortales y se oponen a los malhechores, pero avistar a uno de ellos es una ocasión trascendental: estas magníficas criaturas, aunque reclusas, rara vez aparecen.</p> <p><strong>Couatls</strong>.\n<p>Los miembros más pequeños de la familia de los couatl, los Escama alada, se parecen a sus parientes de mayor tamaño, pero son más o menos del tamaño de un gato doméstico. Mientras que la mayoría de los couatls buscan corregir los errores del mundo o guiar a la civilización mortal hacia el progreso social, los scalliwings trabajan a un nivel más individual. Afirman que su función es enseñar a los hechiceros de buen corazón los caminos de la magia y, de hecho, a veces sirven -o \"asisten\", como corrigen con rapidez- a dichos hechiceros como familiares.</p> <p>Los scalliwings tienen un rostro iridiscente y un cuerpo brillante.\n<p>Con escamas iridiscentes y plumas brillantes, las Escama aladas son criaturas muy bonitas. Parecen muy conscientes de este hecho y utilizan su apariencia para congraciarse con los demás. Esta belleza hace que algunos de ellos se enorgullezcan de sí mismos, pero otros se dan cuenta de que su pequeño tamaño y sus defensas relativamente débiles los ponen a merced de criaturas crueles y más grandes que buscan aprisionarlos como hermosas mascotas y trofeos. Aunque los escualos podrían residir alegremente en una sola residencia indefinidamente por voluntad propia, los escualos cautivos han orquestado retorcidos escapes, coordinando sus esfuerzos con otras criaturas para causar espectaculares daños a la propiedad en el proceso.</p> <p>La mayoría de los escualos en cautividad se escapan de sus jaulas.\n<p>Las Escamas aladas miden unos 60 centímetros de nariz a cola y sus alas tienen aproximadamente la misma longitud. Su vida es casi tan larga como la de un ser humano. Aunque un Escama alada parece algo más común que sus parientes más grandes y solitarios, muchos mortales viven toda su vida sin encontrarse nunca con un Escama alada.",
            "senses": "visión en la oscuridad"
        },
        "Orc Scrapper": {
            "name": "Orc Scrapper (Orc Scrapper)",
            "description": "",
            "senses": "visión en la oscuridad"
        },
        "Stinkweed Shambler": {
            "name": "Stinkweed Shambler (Brozas hierba podrida)",
            "description": "<p>Las brozas hierba podrida son masas animadas de vegetación repugnante que crecen de la tierra necrótica donde han caído ghasts, zombis plagados de enfermedades u otras pútridas criaturas muertas vivientes. En un lugar donde se han destruido numerosas criaturas muertas vivientes, puede surgir una infestación de hasta una docena de brozas hierba podrida. Estos \"rot-mates\" trabajan al unísono, compartiendo una coordinación preternatural. Las brozas hierba podrida crecen rápidamente, apareciendo al principio como brotes verdes de rápido crecimiento con hojas de color verde claro, pero pronto adquieren una forma humanoide que puede liberarse del suelo y moverse lentamente por sí misma. Las hojas de las brozas hierba podrida son la fuente de su desagradable olor, que es más penetrante cuando las hojas se aplastan o se aprietan. Las brozas hierba podrida están cubiertas de pequeñas flores blancas, cada una de las cuales tiene la forma de una pequeña calavera.\n<p>Las brozas hierba podrida son criaturas desagradables, pero sus métodos no son complicados. Les gusta capturar y atormentar a criaturas más grandes, como ganado y humanoides. Conscientes de que no son especialmente fuertes y de que su olor puede delatarles, a las brozas hierba podrida les gusta tender trampas sencillas, como caídas o fosos. Su perversa diversión sólo cesa cuando su presa ha muerto a causa de numerosas heridas. Las brozas hierba podrida no consumen a sus víctimas y, de hecho, carecen de boca; obtienen todo el sustento que necesitan de la luz del sol, pero también parecen obtener cierta satisfacción nutricional del dolor que engendran sus tormentos.</p> <p>La mayoría de las brozas hierba podrida se alimentan de sangre.\n<p>La mayoría de las brozas hierba podrida alcanzan un metro de altura y pesan sólo 10 kilos.",
            "languages": "(No puede hablar ningún idioma)",
            "senses": "visión con poca luz"
        },
        "Nightmare Terrain": {
            "name": "Nightmare Terrain (Terreno de pesadilla)",
            "description": "",
            "desc (hazard)": "<p>Lo que parece una inocente extensión de terreno asalta a los intrusos con terribles ilusión.</p> <p>",
            "stealth": "<p>@Check[type:perception|dc:22|traits:action:seek] para detectar la sutil aura mágica de la tierra</p>",
            "disable": "<p>@Check[type:arcana|dc:22], @Check[type:nature|dc:22], @Check[type:occultism|dc:22], o @Check[type:religion|dc:22]## (por un héroe experto en esa habilidad) tres veces para perturbar temporalmente la magia, o <em>@UUID[Compendium.pf2e.spells-srd.9HpwDN4MYQJnW0LG]{Dispel Magic}#</em> (hechizo de 3er nivel, DC 25)</p> <p>",
            "reset": "<p>Las terribles visiones cesan después de que todas las criaturas hayan abandonado el área afectada, pero el peligro está inmediatamente preparado para infligir sus visiones a la siguiente criatura que entre.</p> <p>",
            "routine": "<p>(1 acción) Terribles visiones asaltan las mentes de todas las criaturas que pueden ver dentro del área afectada. Cada criatura debe hacer una tirada de salvación @Check[type:will|dc:24].</p> <p>\n<hr />\n<p><strong>Éxito crítico</strong> La criatura no se ve afectada.</p> <p\n<p><strong>Éxito</strong> La criatura es @UUID[Compendium.pf2e.conditionitems.TBSHQspnbcqxsmjL]{Frightened 2}#.</p> <p>\n<p><strong>Fallo</strong> La criatura recibe [[/r (2d8+9)[mental]]] de daño y queda @UUID[Compendium.pf2e.conditionitems.TBSHQspnbcqxsmjL]{Endurecido 3}#.</p> <p>\n<p><strong>Fallo Crítico</strong> La criatura recibe [[/r (4d8+18)[mental]]] de daño y queda @UUID[Compendium.pf2e.conditionitems.TBSHQspnbcqxsmjL]{Endurecida 4}#.</p>"
        },
        "Magic Starknives Trap": {
            "name": "Magic Starknives Trap (Magic Starknives Trampa)",
            "description": "",
            "desc (hazard)": "<p>Los símbolos de los cuchillos estrella de los seis pilares brillan y salen disparados por la habitación.</p>",
            "stealth": "<p>para detectar las energías mágicas que reverberan en los pilares</p>",
            "disable": "<p>@Check[type:thievery|dc:21|traits:action:disable-a-device] (experto) o <em>@UUID[Compendium.pf2e.spells-srd.9HpwDN4MYQJnW0LG]{Dispel Magic}</em> sobre cuatro cualesquiera de los seis pilares desactiva toda la trampa (la trampa es un hechizo de 2º nivel y la DC para disiparla es 21). Destruir cuatro de los seis pilares también desactiva la trampa.",
            "reset": "<p>La trampa se desactiva 1 ronda después de no tener criaturas objetivo y se reinicia cada día al atardecer.</p> <p>La trampa se desactiva 1 ronda después de no tener criaturas objetivo y se reinicia cada día al atardecer.",
            "routine": "<p>(3 acciones) Por cada una de sus acciones en su turno, una talla en un pilar diferente brilla y realiza un Golpe a distancia mágico con un cuchillo de estrella contra una criatura aleatoria dentro de su rango de distancia. Las criaturas pueden estar a cubierto de este Golpe, como por ejemplo desde uno de los pilares de la habitación.</p> <p>Las criaturas pueden estar a cubierto de este Golpe."
        },
        "Kurnugian Jackal": {
            "name": "Kurnugian Jackal (Chacal Kurnugiano)",
            "description": "<p>Bajo conjunciones planares específicas, Lamashtu otorga un don Profana a un chacal en el Plano Material. Cuando ese chacal tiene una camada, un cachorro nace con un tercer ojo en el centro de la frente. Si el cachorro sobrevive hasta la madurez, este chacal adquiere una inteligencia superior y habilidades psíquicas, convirtiéndose en un chacal kurnugiano hecho y derecho, llamado así por el reino abisal de la Madre de los Monstruos. Con el aumento de la inteligencia viene el apetito por sembrar el caos en nombre de Lamashtu. Cuando un chacal kurnugiano alcanza el pináculo de su poder, parece el doble de grande que un chacal normal y mucho más astuto.</p> <p><strong>Chacal Kurnugiano</strong>.\n<p>Al chacal kurnugiano le gusta acechar las afueras de los asentamientos en busca de individuos solitarios a los que tender una emboscada. Una vez que ven a su presa, abren su tercer ojo para hipnotizar y atraer a su objetivo. A menudo, un chacal kurnugiano conduce a sus víctimas a tierras vírgenes y luego las suelta, dejándolas perdidas sin recordar cómo han llegado hasta allí. La mayoría sucumben a la exposición o a los peligros de la fauna local, mientras el chacal observa con regocijo. Parecen obtener sustento de la situación de sus víctimas, pero también se dan un festín con la carne de las víctimas fallecidas. Si su presa alcanza un lugar seguro, el chacal de Kurnug repite el proceso las noches siguientes.\n<p>Algunos chacales de Kurnugia son adoptados como objetos de culto por las sectas de Lamashtan, y otros reúnen seguidores por su cuenta. Su parecido con el símbolo religioso de Lamashtu les otorga una gran reverencia, y a veces afirman hablar directamente en nombre de la Madre de los Monstruos. Un culto con un chacal kurnugiano a menudo actúa con más audacia que uno sin él.</p> <p>",
            "senses": "Visión con poca luz, olfato (impreciso) 60 pies."
        },
        "Kobold Trapmaster": {
            "name": "Kobold Trapmaster (Kobold Trapmaster)",
            "description": "<p>Los maestros de trampas kobold son los cerebros detrás de elaborar e implementar astutas trampas en las guaridas kobold, y son ampliamente respetados entre los de su clase.</p>",
            "senses": "visión en la oscuridad"
        },
        "Vkudm63q6gEmBgGp": {
            "name": "Low-Light Vision (Visión con poca luz)",
            "items-description": "<p>@Localize[PF2E.NPC.Abilities.Glossary.LowLightVision]</p>"
        },
        "aADQJA0W9vAaOmXT": {
            "name": "Maul (Zarpazo doble)",
            "items-description": ""
        },
        "BH97LqHtuqNlighQ": {
            "name": "Hurried Retreat (Retirada apresurada)",
            "items-description": "<p>Si el kobold está adyacente a al menos un enemigo, el kobold da una Zancada de hasta 30 pies y obtiene un bonificador +2 de circunstancia a la CA contra las reacciones desencadenantes de este movimiento. Deben terminar este movimiento en un espacio que no esté adyacente a ningún enemigo.</p> <p>"
        },
        "ZhDg0uKQhEzdCReZ": {
            "name": "Fist (Puño)",
            "items-description": ""
        },
        "088hXYj7GIHJtlm7": {
            "name": "Hand Crossbow (Ballesta de mano)",
            "items-description": ""
        },
        "UMd6rwUlzKFS3lvJ": {
            "name": "Javelin (Javelin)",
            "items-description": ""
        },
        "b200ENWSAzXNlSMf": {
            "name": "Battle Axe (Hacha de batalla)",
            "items-description": ""
        },
        "hyIUDH9G8UlF3pne": {
            "name": "Knockdown (Derribo)",
            "items-description": "<p>@Localize[PF2E.NPC.Abilities.Glossary.Knockdown]</p>"
        },
        "Fges35T0kVykR3rl": {
            "name": "Sneak Attack (Movimiento furtivo)",
            "items-description": "<p>El kobold trapmaster inflige 1d6 puntos de daño extra a las criaturas que tengan el estado negativo (normalmente se abrevia a estado).</p> <p><strong>Estado negativo</strong>.\n<hr />\n<p>@Localize[PF2E.NPC.Abilities.Glossary.SneakAttack]</p>"
        },
        "9Nve1oYElRWcJhIh": {
            "name": "Unburdened Iron (No impedido por el hierro)",
            "items-description": "<p>Hargrit ignora la reducción de su Velocidad por armadura y resta 5 pies a cualquier penalización a su Velocidad (como la de un hechizo)</p>"
        },
        "QZb6NNceGC3aMTMO": {
            "name": "Staff (Báculo)",
            "items-description": ""
        },
        "vlVKxFijTHI7cMPh": {
            "name": "Necromancer (Nigromante)",
            "items-description": "<p>Morgrym trata con los sombríos poderes de la vida y la muerte y ha enfocado su magia para ayudarle en este empeño. Puede lanzar <em>@UUID[Compendium.pf2e.spells-srd.4koZzrnMXhhosn0D]{Miedo}</em> como hechizo de escuela.</p>"
        },
        "ccosYJxMalM6rfN8": {
            "name": "Spike Trap (Trampa de pinchos)",
            "items-description": "<p>Una vez desplegada esta trampa, cualquiera que pise la casilla en la que está recibe [[/r 2d8[perforante]]] de daño y debe hacer una tirada de salvación @Check[type:reflex|dc:17|basic:true]#.</p>"
        },
        "1on1nKLods5yCirm": {
            "name": "Sneak Attack (Movimiento furtivo)",
            "items-description": "<p>Omblin inflige 1d6 extra a las criaturas que tienen el estado negativo (normalmente se abrevia a estado).\n<hr />\n<p>@Localize[PF2E.NPC.Abilities.Glossary.SneakAttack]</p>"
        },
        "STheFAvLWD42KLo9": {
            "name": "Nimble Dodge (Esquiva ágil)",
            "items-description": "<p><strong>Desencadenante</strong> Una criatura te designa como objetivo con un ataque y puedes ver al atacante.</p> <p\n<p><strong>Requisitos</strong> No estás impedido/a</p>\n<hr />\n<p>Esquivas hábilmente, ganando un bonificador +2 de circunstancia a la CA contra el ataque desencadenante.</p> <p><strong>Evitas a tu enemigo</strong>."
        },
        "5v6fepRCSyg6ZABC": {
            "name": "Darkvision (Visión en la oscuridad)",
            "items-description": "<p>@Localize[PF2E.NPC.Abilities.Glossary.Darkvision]</p>"
        },
        "QVjozo4fqxCzzccc": {
            "name": "Rapier (Estoque)",
            "items-description": ""
        },
        "QfnsBk0XQ6x9wJSe": {
            "name": "Quick Trap (Trampa Rápida)",
            "items-description": "<p>El kobold trapmaster despliega una trampa de pinchos en una casilla adyacente.</p>"
        },
        "Ihvi8o6Gm4pwbhph": {
            "name": "Fangs (Colmillos)",
            "items-description": ""
        },
        "dwvQyKJ9gUWC4S3f": {
            "name": "Starknife Attack (Starknife Attack)",
            "items-description": "<p>Si una criatura pasa por el par de pilares del medio, las dos puertas que dan a la salida de la sala se cierran de golpe y se bloquean; mientras la trampa está activa, las puertas deben abrirse a golpes con un chequeo @Check[type:athletics|dc:23|name:Batter Open Door|traits:action:force-open] exitoso o daño suficiente (Dureza 12; HP 48 [BT 24]). Una de las tallas de cuchillo de estrella brilla con luz, se desprende del pilar y vuela hacia el exterior, efectuando un Golpe a Distancia con cuchillo de estrella mágico contra una criatura aleatoria dentro de su rango de distancia. La trampa entonces tira iniciativa con su modificador de Sigilo de +12</p>"
        },
        "OOCu4hNQg4NvyXLU": {
            "name": "Arcane Prepared Spells (Hechizos Arcanos Preparados)",
            "items-description": ""
        },
        "Iq79xetoAoYDXkjs": {
            "name": "Darkvision (Visión en la oscuridad)",
            "items-description": "<p>@Localize[PF2E.NPC.Abilities.Glossary.Darkvision]</p>"
        },
        "gqjrPshyFW4Y4vrS": {
            "name": "Javelin (Javelin)",
            "items-description": ""
        },
        "9d61GjN8ciAoj4Z2": {
            "name": "Low-Light Vision (Visión con poca luz)",
            "items-description": "<p>@Localize[PF2E.NPC.Abilities.Glossary.LowLightVision]</p>"
        },
        "19bgEIET0naweDE4": {
            "name": "Darkvision (Visión en la oscuridad)",
            "items-description": "<p>@Localize[PF2E.NPC.Abilities.Glossary.Darkvision]</p>"
        },
        "wBuoAb6EXYtmwPmo": {
            "name": "Longsword (Longsword)",
            "items-description": ""
        },
        "9JzCRTSPmLBMHyll": {
            "name": "Darkvision (Visión en la oscuridad)",
            "items-description": "<p>@Localize[PF2E.NPC.Abilities.Glossary.Darkvision]</p>"
        },
        "ZxSGALYRVWtMBLTi": {
            "name": "Darkvision (Visión en la oscuridad)",
            "items-description": "<p>@Localize[PF2E.NPC.Abilities.Glossary.Darkvision]</p>"
        },
        "NoYQle3HJatFQcgH": {
            "name": "Noose (Lazo)",
            "items-description": "<p>El objetivo obtiene el estado negativo @UUID[Compendium.pf2e.conditionitems.kWc1fhmv9LBiTuei]{Grabbed}# es y arrancado del suelo (@UUID[Compendium.pf2e.actionspf2e.SkZAQRkLLkmBQNB9]{Huir} DC 22).</p>"
        },
        "ae0LOykLqNxqAXLN": {
            "name": "Darkvision (Visión en la oscuridad)",
            "items-description": "<p>@Localize[PF2E.NPC.Abilities.Glossary.Darkvision]</p>"
        },
        "7TD5aX6vNauxTw5T": {
            "name": "Arcane Bond (Vínculo arcano)",
            "items-description": "<p>Una vez al día, Morgrym puede drenar el poder de su objeto vinculado para elegir un hechizo que ya haya lanzado hoy y lanzarlo de nuevo. Recuperar este hechizo es instantáneo, pero todavía tiene que gastar las acciones para lanzar el hechizo.</p> <p>"
        },
        "nUWlISx8ev0qZpTG": {
            "name": "Low-Light Vision (Visión con poca luz)",
            "items-description": "<p>@Localize[PF2E.NPC.Abilities.Glossary.LowLightVision]</p>"
        },
        "uGR730eqkGcdJEfo": {
            "name": "Javelin (Javelin)",
            "items-description": ""
        },
        "pgQRipY9qrXPcNlY": {
            "name": "Darkvision (Visión en la oscuridad)",
            "items-description": "<p>@Localize[PF2E.NPC.Abilities.Glossary.Darkvision]</p>"
        },
        "u4infcHTr2ku9Uxi": {
            "name": "Spear (Lanza)",
            "items-description": ""
        },
        "symt5PZrNoJWeIqe": {
            "name": "Fist (Puño)",
            "items-description": ""
        },
        "Nc23oEL8srJURx0P": {
            "name": "Remove Memory (Borrar memoria)",
            "items-description": "<p>El kurnugiano termina su habilidad Mirada hipnótica antes de tiempo y, justo antes de que esto ocurra, el objetivo debe tener éxito en una tirada de salvación @Check[type:will|dc:24] u olvidar cualquier actividad hostil que el chacal kurnugiano haya realizado contra él.</p>"
        },
        "ll1kYssjNZ4S5vnd": {
            "name": "Brutish Shove (Empujón brutal)",
            "items-description": "<p>Si Kotgar ya ha atacado este turno y tiene un arma cuerpo a cuerpo a dos manos, puede hacer un Golpe con su arma cuerpo a cuerpo a dos manos. Si alcanza a un objetivo mediano o más pequeño, puede hacerlo retroceder 5 pies, o 10 pies si su Golpe fue crítico. Kotgar puede moverse para seguir al objetivo. Tanto si acierta como si falla, el objetivo queda @UUID[Compendium.pf2e.conditionitems.AJh5ex99aV6VTggg]{Flat-Footed}## hasta el final de su turno actual a menos que falle críticamente.</p> <p>"
        },
        "lykdG2IwAxNTGqQo": {
            "name": "Darkvision (Visión en la oscuridad)",
            "items-description": "<p>@Localize[PF2E.NPC.Abilities.Glossary.Darkvision]</p>"
        },
        "H8wipabcGbcu7thF": {
            "name": "Waving Weed (Agitar hierbas)",
            "items-description": "<p>La broza movediza da Zancadas hasta la mitad de su Velocidad. Este movimiento no provoca reacciones.</p> <p"
        },
        "eIrvs73CKJq05yZP": {
            "name": "Scent (Imprecise) 60 feet (Olor (Impreciso) 60 pies)",
            "items-description": "<p>@Localize[PF2E.NPC.Abilities.Glossary.Scent]</p>"
        },
        "J08BqvSNQN7R2E9v": {
            "name": "Ferocity (Ferocidad)",
            "items-description": "<p>@Localize[PF2E.NPC.Abilities.Glossary.Ferocity]</p>"
        },
        "l8f0B8czvLKLsc06": {
            "name": "Web Noose (Web Noose)",
            "items-description": "<p>Si una criatura entra en la casilla con el cable de telara, el lazo de telara hace un Golpe de lazo contra la criatura.</p>"
        },
        "73fsCGNUERkE3I1S": {
            "name": "Hypnotic Stare (Mirada hipnótica)",
            "items-description": "<p>El chacal kurnugiano abre su tercer ojo para mirar a un objetivo en un radio de 30 pies que pueda ver al chacal. Ese objetivo sufre un penalizador -2 a las tiradas de salvación de Voluntad hasta el final del siguiente turno del chacal de Kurnugia. El chacal de Kurnug sólo puede mantener esta mirada contra un oponente a la vez; si la utiliza contra un segundo objetivo, termina para el primero. El chacal puede desecharla como acción gratuita y usar su habilidad Borrar memoria si así lo desea.</p> <p>\n<p>@UUID[Compendium.pf2e.bestiary-effects.qFDiWpzk8cuwQGyH]{Efecto: Mirada hipnótica}</p>"
        },
        "qEbFimPOeE5aFvE7": {
            "name": "Dagger (Daga)",
            "items-description": ""
        },
        "YhlP3I6uuAc1wEik": {
            "name": "Divine Innate Spells (Hechizos divinos innatos)",
            "items-description": ""
        },
        "QfWg8mYxqbJly84b": {
            "name": "Shortsword (Espada corta)",
            "items-description": ""
        },
        "i74S7XGGuuWnr88J": {
            "name": "Mauler (Vapulear)",
            "items-description": "<p>El merodeador bugbear gana un bonificador +3 de circunstancia a las tiradas de daño contra criaturas a las que hayan @UUID[Compendium.pf2e.conditionitems.kWc1fhmv9LBiTuei]{Agarrado}.</p>"
        },
        "c6BnmJR85HoUuFbA": {
            "name": "Inflict Pain (Infligir Dolor)",
            "items-description": "<p>Cuando un objetivo afectado por la habilidad Mirada hipnótica del chacal kurnugiano recibe daño, el chacal puede concentrar el poder de su tercer ojo para intensificar el dolor de este daño, aumentando el daño infligido en [[/r 1d6]]{1d6}.</p> <p>."
        },
        "zhR9Ys8AyYNjAz29": {
            "name": "Arcane Focus Spells (Conjuros de foco arcano)",
            "items-description": ""
        },
        "0SzWuQBdiVOEj4WC": {
            "name": "Shattering Urn (Urna que estalla)",
            "items-description": ""
        },
        "k5kr2ILvlJNg5oKb": {
            "name": "Darkvision (Visión en la oscuridad)",
            "items-description": "<p>@Localize[PF2E.NPC.Abilities.Glossary.Darkvision]</p>"
        },
        "lLR6EoZxZTWifZUj": {
            "name": "Maul (Zarpazo doble)",
            "items-description": ""
        },
        "56wLde8SVEfys89N": {
            "name": "Vine (Vid)",
            "items-description": ""
        },
        "wyzsbdPo28UWUYTD": {
            "name": "Unburdened Iron (No impedido por el hierro)",
            "items-description": "<p>Omblin ignora la reducción a su Velocidad por armadura y resta 5 pies a cualquier penalización a su Velocidad (como por ejemplo por un hechizo)</p> <p>."
        },
        "I0AZeY12ooiFLuuW": {
            "name": "Powerful Shove (Empujón poderoso)",
            "items-description": "<p>Cuando una criatura a la que Kotgar Empuja tiene que dejar de moverse porque chocaría contra un objeto, recibe [[/r 4[bludgeoning]]] de daño.</p>"
        },
        "8mPErkHbf2ju6RgN": {
            "name": "Ferocity (Ferocidad)",
            "items-description": "<p>@Localize[PF2E.NPC.Abilities.Glossary.Ferocity]</p>"
        },
        "I6Vb3uZRlv6pkiNj": {
            "name": "Unbalancing Blow (Golpe desequilibrante)",
            "items-description": "<p>Cuando Omblin golpea críticamente a un objetivo e inflige daño, el objetivo queda @UUID[Compendium.pf2e.conditionitems.AJh5ex99aV6VTggg]{Flat-Footed}# contra sus ataques hasta el final de su siguiente turno.</p>"
        },
        "0gQuuCA2OyaQRNwR": {
            "name": "Stench (Hedor)",
            "items-description": "<p>@Template[type:emanation|distance:10] @UUID[Compendium.pf2e.bestiary-ability-glossary-srd.v61oEQaDdcRpaZ9X]{Aura}</p>\n<p>Una criatura que entre en el aura o comience su turno en ella debe tener éxito en una salvación @Check[type:fortitude|dc:14] o se convierte en @UUID[Compendium.pf2e.conditionitems.AJh5ex99aV6VTggg]{Piso-Footed}# durante 1 asalto (y @UUID[Compendium.pf2e.conditionitems.xYTAsEpcJE1Ccni3]{Slowed 1}# durante 1 asalto en caso de fallo crítico). Una criatura que tenga éxito en su salvación es temporalmente inmune durante 1 minuto.</p> <p>"
        },
        "1uUxlDMn7nj3yjAy": {
            "name": "Divine Innate Spells (Hechizos divinos innatos)",
            "items-description": ""
        },
        "71j8rIykcKntxLJQ": {
            "name": "Collapse (Colapso)",
            "items-description": "<p>Si una criatura camina por la zona marcada en el mapa, cae a través de las debilitadas tablas del suelo sobre rocas desiguales y afilados fragmentos de madera, recibiendo [[/r 1d4[perforante]]] de daño y [[/r 1d6[contundente]]] de daño. La criatura puede usar la reacción @UUID[Compendium.pf2e.actionspf2e.3yoajuKjwHZ9ApUY]{Agárrate a un saliente}# para evitar la caída y el daño.</p> <p>Evita la caída."
        },
        "W6XkoyVR7QH9Z8lg": {
            "name": "Necromantic Defense (Necromantic Defense)",
            "items-description": "<p>Si Morgrym es el objetivo de un ataque y una criatura no muerta de nivel inferior está adyacente a él, Morgrym y el muerto viviente intercambian lugares, y el muerto viviente se convierte en el objetivo del ataque.</p> <p>Si Morgrym es el objetivo de un ataque y una criatura no muerta de nivel inferior está adyacente a él, Morgrym y el muerto viviente intercambian lugares, y el muerto viviente se convierte en el objetivo del ataque."
        },
        "MKiOmYkknzLyP0Am": {
            "name": "Javelin (Javelin)",
            "items-description": ""
        },
        "zNOKH6cGU4FaspAX": {
            "name": "Woodland Stride (Paso forestal)",
            "items-description": "<p>Una broza movediza ignora el terreno difícil y el terreno difícil mayor del follaje no mágico.</p>"
        },
        "z7UOnDRw58SSvHLY": {
            "name": "Fist (Puño)",
            "items-description": ""
        },
        "742oUZV30i6otpgL": {
            "name": "Stinky Leaves (Hojas apestosas)",
            "items-description": "<p>El olor fétido que emite una broza movediza se hace más fuerte cuando sus hojas se aplastan o se queman. Cuando una broza movediza recibe daño por apaleamiento o fuego, la DC de su habilidad de Hedor aumenta a 18 y su bonificador de Sigilo disminuye a +4. Ambos efectos duran 1 minuto."
        },
        "qunm5Cfit6Q1T4dI": {
            "name": "Wing Flash (Alas cegadoras)",
            "items-description": "<p>La Escama alada despliega sus alas iridiscentes y las agita siguiendo una pauta hipnótica. Cada criatura en un radio de 30 pies que pueda ver al Escama alada debe intentar una salvación @Check[type:will|dc:20]##.</p> <p>\n<hr />\n<p><strong>Éxito crítico</strong> La criatura no se ve afectada.</p> <p\n<p><strong>Éxito</strong> La criatura queda @UUID[Compendium.pf2e.conditionitems.AJh5ex99aV6VTggg]{Flat-Footed}### hasta el comienzo de su siguiente turno.</p> <p>\n<p><strong>Fallo</strong> La criatura queda con los pies planos hasta el inicio de su siguiente turno, y debe gastar su primera acción de su siguiente turno en admirar la Escama alada.</p>\n<p><strong>Fallo Crítico</strong> La criatura queda con los pies planos hasta el inicio de su siguiente turno. Durante 1 minuto, la criatura debe gastar su primera acción de cada turno admirando la Escama alada. Este efecto termina si la Escama alada ataca o usa otra acción hostil contra la criatura afectada.</p> <p>"
        },
        "8hva3s7KDSqeUTKh": {
            "name": "Dagger (Daga)",
            "items-description": ""
        },
        "VePco7JeJmUM7ijK": {
            "name": "Attack of Opportunity (Ataque de oportunidad)",
            "items-description": "<p>@Localize[PF2E.NPC.Abilities.Glossary.AttackOfOpportunity]</p>"
        },
        "WqgfgkwqUVMJK44b": {
            "name": "Jaws (Fauces)",
            "items-description": ""
        },
        "Fk4R8F6Vr2Lr7mZZ": {
            "name": "Step into Nightmares (Paso a las pesadillas)",
            "items-description": "<p>Si una criatura que puede ver se mueve 10 pies en el área afectada, el peligro tira Sigilo (+16) para su iniciativa.</p> <p>Si una criatura que puede ver se mueve 10 pies en el área afectada, el peligro tira Sigilo (+16) para su iniciativa."
        },
        "di2qBg3DVoOSKzDk": {
            "name": "Unburdened Iron (No impedido por el hierro)",
            "items-description": "<p>Kotgar ignora la reducción de su Velocidad por armadura y resta 5 pies a cualquier penalización a su Velocidad (como la de un hechizo)</p> <p>."
        },
        "YB4lJDTFGnMJZxPX": {
            "name": "Jaws (Fauces)",
            "items-description": ""
        },
        "UkurqY6wQGrS67eI": {
            "name": "Divine Prepared Spells (Hechizos Divinos Preparados)",
            "items-description": ""
        },
        "O9himtaJvrfCALhE": {
            "name": "Magical Starknife (Magical Starknife)",
            "items-description": ""
        },
        "d5T3nJCRgqqqQvzD": {
            "name": "Battle Cry (Grito de guerra)",
            "items-description": "<p>Gritando con fuerza, el comandante se otorga a sí mismo y a todos los aliados orcos en un radio de @Template[type:emanation|distance:60]{60 feet} que puedan oírle un bonificador de situación +1 a las tiradas de ataque y daño hasta el comienzo del siguiente turno del comandante orco.</p> <p>\n<p>@UUID[Compendium.pf2e.bestiary-effects.Yqq4AkZ9lrm4CcID]{Efecto: Grito de guerra}</p>"
        },
        "iIaK3retIHJkXgrh": {
            "name": "Bushwhack (Emboscar)",
            "items-description": "Si el bugbear tiene éxito, también infligen daño de puño a esa criatura.</p> <p>"
        },
        "Wigs6zeZoSmogj8P": {
            "name": "Seedpod (Vaina de semillas)",
            "items-description": ""
        }
    },
    "mapping": {
        "description": "system.details.publicNotes",
        "cadetails": "system.attributes.ac.details",
        "ci": "system.traits.ci.custom",
        "damageimmunity": "system.traits.di.custom",
        "damageresistance": "system.traits.dr.custom",
        "damagevulnerability": "system.traits.dv.custom",
        "hpdetails": "system.attributes.hp.details",
        "languages": "system.traits.languages.custom",
        "saves": "system.attributes.allSaves.value",
        "senses": "system.traits.senses.value",
        "speeds": "system.attributes.speed.details",
        "traits": "system.traits.traits.custom",
        "desc (hazard)": "system.details.description",
        "stealth": "system.attributes.stealth.details",
        "disable": "system.details.disable",
        "reset": "system.details.reset",
        "routine": "system.details.routine",
        "target": "system.target.value",
        "itemsdescription": "items.system.description.value",
        "items-description": "system.description.value",
        "items-variant0": "system.variants.0.label",
        "items-variant1": "system.variants.1.label",
        "items-variant2": "system.variants.2.label"
    }
}